0.05001,0.22969,0.021144
0.050214,0.23358,0.024092
0.050418,0.24348,0.021954
0.050622,0.27605,0.024211
0.050825,0.29941,0.025215
0.051029,0.23358,0.022071
0.051233,0.24818,0.022751
0.051437,0.2598,0.024884
0.051641,0.22793,0.020721
0.051845,0.26522,0.025403
0.052049,0.24453,0.021125
0.052252,0.21235,0.021235
0.052456,0.26695,0.023596
0.05266,0.2442,0.022772
0.052864,0.20137,0.020137
0.053068,0.23776,0.022268
0.053272,0.17908,0.018671
0.053476,0.25482,0.023262
0.053679,0.22775,0.021055
0.053883,0.26637,0.023362
0.054087,0.2461,0.022656
0.054291,0.22082,0.020074
0.054495,0.26487,0.023504
0.054699,0.24349,0.021955
0.054903,0.21253,0.020172
0.055107,0.22744,0.021588
0.05531,0.23165,0.021235
0.055514,0.24917,0.022023
0.055718,0.19056,0.01976
0.055922,0.24883,0.020523
0.056126,0.24258,0.023342
0.05633,0.2044,0.019314
0.056534,0.23359,0.02081
0.056737,0.22525,0.021675
0.056941,0.23714,0.020485
0.057145,0.25002,0.021361
0.057349,0.23158,0.021595
0.057553,0.21922,0.019847
0.057757,0.23165,0.021235
0.057961,0.23749,0.021501
0.058164,0.20745,0.019017
0.058368,0.18032,0.019222
0.058572,0.24018,0.019877
0.058776,0.21346,0.020733
0.05898,0.23001,0.02033
0.059184,0.22989,0.020645
0.059388,0.22829,0.0201
0.059592,0.22387,0.020876
0.059795,0.21624,0.018475
0.059999,0.24612,0.022657
0.060203,0.22225,0.018988
0.060407,0.21829,0.020444
0.060611,0.25337,0.021338
0.060815,0.21498,0.019077
0.061019,0.22462,0.020091
0.061222,0.2106,0.019306
0.061426,0.19048,0.018501
0.06163,0.23892,0.020563
0.061834,0.21591,0.019548
0.062038,0.20564,0.018393
0.062242,0.19467,0.018998
0.062446,0.21441,0.018522
0.062649,0.18853,0.019655
0.062853,0.19935,0.01762
0.063057,0.16243,0.017218
0.063261,0.21577,0.018709
0.063465,0.19356,0.017972
0.063669,0.21025,0.018731
0.063873,0.20395,0.019446
0.064077,0.16732,0.016251
0.06428,0.19067,0.018098
0.064484,0.17775,0.017347
0.064688,0.18721,0.017308
0.064892,0.18086,0.018459
0.065096,0.18066,0.016774
0.0653,0.20145,0.018467
0.065504,0.19306,0.017698
0.065707,0.17021,0.016853
0.065911,0.20766,0.018355
0.066115,0.18724,0.017934
0.066319,0.1857,0.016676
0.066523,0.20259,0.019229
0.066727,0.20966,0.01772
0.066931,0.1919,0.017895
0.067134,0.20002,0.01789
0.067338,0.17829,0.016554
0.067542,0.17437,0.017181
0.067746,0.21364,0.018121
0.06795,0.16873,0.016545
0.068154,0.16782,0.016616
0.068358,0.1989,0.017719
0.068562,0.16709,0.015718
0.068765,0.17866,0.017519
0.068969,0.18092,0.016054
0.069173,0.17609,0.017522
0.069377,0.17446,0.016269
0.069581,0.20289,0.017659
0.069785,0.18291,0.016767
0.069989,0.19579,0.017948
0.070192,0.1804,0.016333
0.070396,0.1651,0.016036
0.0706,0.16062,0.015315
0.070804,0.1768,0.016706
0.071008,0.19367,0.017253
0.071212,0.17223,0.016061
0.071416,0.1775,0.01641
0.07162,0.18224,0.016848
0.071823,0.18983,0.016649
0.072027,0.16647,0.015591
0.072231,0.18893,0.016507
0.072435,0.16549,0.016386
0.072639,0.18224,0.016848
0.072843,0.17179,0.015366
0.073047,0.18962,0.017917
0.07325,0.17187,0.015192
0.073454,0.16175,0.015565
0.073658,0.16608,0.015289
0.073862,0.1542,0.015498
0.074066,0.17096,0.015606
0.07427,0.16537,0.01584
0.074474,0.16785,0.015013
0.074677,0.15323,0.015247
0.074881,0.16175,0.015565
0.075085,0.2187,0.017236
0.075289,0.17673,0.01627
0.075493,0.16329,0.014723
0.075697,0.12323,0.014043
0.075901,0.14072,0.013668
0.076105,0.15379,0.015081
0.076308,0.15764,0.014896
0.076512,0.14528,0.014751
0.076716,0.15287,0.013784
0.07692,0.18191,0.017424
0.077124,0.15021,0.013886
0.077328,0.16267,0.01551
0.077532,0.17188,0.015192
0.077735,0.16197,0.014664
0.077939,0.15476,0.015323
0.078143,0.16302,0.014881
0.078347,0.15394,0.014546
0.078551,0.15318,0.014101
0.078755,0.15577,0.014989
0.078959,0.1394,0.013604
0.079162,0.15626,0.015106
0.079366,0.14928,0.013921
0.07957,0.15877,0.015421
0.079774,0.15163,0.013728
0.079978,0.15388,0.014807
0.080182,0.15707,0.014279
0.080386,0.15438,0.014654
0.08059,0.15487,0.014505
0.080793,0.14508,0.013648
0.080997,0.17135,0.014915
0.081201,0.14857,0.014639
0.081405,0.14178,0.013642
0.081609,0.12064,0.012378
0.081813,0.153,0.014588
0.082017,0.14635,0.013416
0.08222,0.15022,0.014455
0.082424,0.16562,0.014582
0.082628,0.13941,0.013605
0.082832,0.15189,0.014042
0.083036,0.15799,0.014483
0.08324,0.1497,0.013498
0.083444,0.15531,0.014876
0.083647,0.13898,0.013074
0.083851,0.13109,0.013667
0.084055,0.14576,0.012985
0.084259,0.15319,0.014102
0.084463,0.13967,0.013696
0.084667,0.15955,0.014158
0.084871,0.14791,0.013559
0.085075,0.13586,0.013586
0.085278,0.14575,0.01325
0.085482,0.15005,0.013585
0.085686,0.17261,0.015139
0.08589,0.12791,0.012543
0.086094,0.13833,0.01363
0.086298,0.14214,0.013085
0.086502,0.13424,0.012918
0.086705,0.098774,0.010908
0.086909,0.12784,0.013256
0.087113,0.13203,0.012421
0.087317,0.1431,0.013707
0.087521,0.14294,0.012734
0.087725,0.12341,0.012729
0.087929,0.12902,0.012531
0.088132,0.15368,0.013971
0.088336,0.12758,0.012333
0.08854,0.1297,0.012311
0.088744,0.13996,0.013406
0.088948,0.12152,0.011916
0.089152,0.1156,0.011988
0.089356,0.14225,0.013441
0.08956,0.11923,0.011923
0.089763,0.14157,0.012612
0.089967,0.13392,0.01326
0.090171,0.12025,0.01168
0.090375,0.12584,0.012712
0.090579,0.13614,0.012427
0.090783,0.1205,0.012111
0.090987,0.12983,0.012379
0.09119,0.12769,0.012403
0.091394,0.1146,0.011348
0.091598,0.10691,0.011528
0.091802,0.15425,0.013425
0.092006,0.11107,0.011336
0.09221,0.13204,0.012422
0.092414,0.14975,0.013034
0.092617,0.1297,0.012905
0.092821,0.118,0.011627
0.093025,0.11129,0.011129
0.093229,0.11213,0.011505
0.093433,0.11442,0.011802
0.093637,0.097198,0.010303
0.093841,0.1036,0.011172
0.094045,0.10001,0.010261
0.094248,0.12321,0.01251
0.094452,0.1114,0.01103
0.094656,0.10722,0.011365
0.09486,0.13578,0.012293
0.095064,0.11332,0.011565
0.095268,0.11896,0.011191
0.095472,0.13119,0.012026
0.095675,0.10602,0.011302
0.095879,0.1281,0.011997
0.096083,0.12154,0.011918
0.096287,0.1266,0.011704
0.096491,0.10796,0.010961
0.096695,0.12367,0.011845
0.096899,0.10167,0.0109
0.097102,0.11899,0.011243
0.097306,0.13952,0.012899
0.09751,0.1116,0.01084
0.097714,0.13891,0.012375
0.097918,0.12223,0.011447
0.098122,0.11453,0.011569
0.098326,0.09435,0.010058
0.09853,0.11146,0.010982
0.098733,0.104,0.01056
0.098937,0.12021,0.011567
0.099141,0.12603,0.012017
0.099345,0.13669,0.011943
0.099549,0.12031,0.011741
0.099753,0.12195,0.011132
0.099957,0.098715,0.010583
0.10016,0.10213,0.01037
0.10036,0.12355,0.011727
0.10057,0.13601,0.011706
0.10077,0.10957,0.011549
0.10098,0.11098,0.01044
0.10118,0.10656,0.01105
0.10138,0.11892,0.011042
0.10159,0.12137,0.011679
0.10179,0.12097,0.011137
0.102,0.12431,0.011493
0.1022,0.11581,0.011093
0.1024,0.11369,0.010991
0.10261,0.11369,0.010991
0.10281,0.11188,0.010572
0.10301,0.11998,0.01114
0.10322,0.10695,0.010859
0.10342,0.10951,0.010738
0.10363,0.12205,0.011235
0.10383,0.10814,0.010868
0.10403,0.12474,0.011068
0.10424,0.12857,0.011688
0.10444,0.09572,0.0098206
0.10465,0.10732,0.010678
0.10485,0.12004,0.011243
0.10505,0.11486,0.010758
0.10526,0.12078,0.010846
0.10546,0.11157,0.010888
0.10566,0.11073,0.010655
0.10587,0.14251,0.012088
0.10607,0.11583,0.011044
0.10628,0.11883,0.010758
0.10648,0.11167,0.010795
0.10668,0.11396,0.010536
0.10689,0.10964,0.01065
0.10709,0.12095,0.011087
0.1073,0.099301,0.010135
0.1075,0.096431,0.0096916
0.1077,0.12723,0.011472
0.10791,0.11118,0.010279
0.10811,0.1039,0.010604
0.10831,0.11976,0.010712
0.10852,0.10861,0.0106
0.10872,0.10935,0.010153
0.10893,0.10854,0.010643
0.10913,0.095811,0.0095811
0.10933,0.094298,0.0096242
0.10954,0.1109,0.010526
0.10974,0.10897,0.010389
0.10995,0.11588,0.010806
0.11015,0.091439,0.0092843
0.11035,0.10571,0.010366
0.11056,0.097247,0.0097737
0.11076,0.11286,0.010664
0.11097,0.086321,0.0088101
0.11117,0.10627,0.010627
0.11137,0.099926,0.0097057
0.11158,0.12181,0.010939
0.11178,0.10521,0.0097263
0.11198,0.11163,0.010842
0.11219,0.12073,0.010755
0.11239,0.10228,0.009982
0.1126,0.10006,0.0096736
0.1128,0.10669,0.0099491
0.113,0.1189,0.010899
0.11321,0.10503,0.0097937
0.11341,0.1149,0.010715
0.11362,0.10897,0.01039
0.11382,0.11498,0.010497
0.11402,0.11163,0.0099053
0.11423,0.086927,0.0093195
0.11443,0.12044,0.010328
0.11463,0.11374,0.010945
0.11484,0.11151,0.010014
0.11504,0.096273,0.0097251
0.11525,0.10716,0.009742
0.11545,0.091242,0.0093124
0.11565,0.11129,0.010202
0.11586,0.11691,0.010374
0.11606,0.10835,0.010148
0.11627,0.11319,0.010248
0.11647,0.10948,0.010079
0.11667,0.10539,0.0096614
0.11688,0.10445,0.010005
0.11708,0.089567,0.0091894
0.11729,0.10943,0.010116
0.11749,0.10644,0.0096366
0.11769,0.1113,0.010203
0.1179,0.097125,0.0093459
0.1181,0.11216,0.010325
0.1183,0.096067,0.0093308
0.11851,0.10192,0.010092
0.11871,0.096128,0.0091241
0.11892,0.1054,0.0096619
0.11912,0.098171,0.0093603
0.11932,0.11076,0.0098673
0.11953,0.10288,0.0098097
0.11973,0.10531,0.0096948
0.11994,0.11235,0.01013
0.12014,0.095833,0.0095833
0.12034,0.10488,0.0094955
0.12055,0.1109,0.0097641
0.12075,0.1062,0.010172
0.12095,0.10439,0.009337
0.12116,0.11201,0.01049
0.12136,0.10479,0.0095267
0.12157,0.10121,0.0093975
0.12177,0.088789,0.0088348
0.12197,0.11875,0.010415
0.12218,0.10421,0.0093965
0.12238,0.11021,0.010277
0.12259,0.099631,0.0090573
0.12279,0.11783,0.010334
0.12299,0.1082,0.0097164
0.1232,0.1001,0.0091762
0.1234,0.11887,0.010762
0.1236,0.11086,0.0097989
0.12381,0.092531,0.0088225
0.12401,0.12031,0.010097
0.12422,0.11157,0.0099792
0.12442,0.094214,0.0089024
0.12462,0.11598,0.0105
0.12483,0.095519,0.0088687
0.12503,0.11319,0.01029
0.12524,0.11216,0.0094453
0.12544,0.1188,0.010542
0.12564,0.11928,0.0096752
0.12585,0.096243,0.0093042
0.12605,0.11947,0.010061
0.12626,0.08988,0.0088562
0.12646,0.11863,0.010026
0.12666,0.091814,0.0089178
0.12687,0.11946,0.010025
0.12707,0.10794,0.0093949
0.12727,0.11784,0.010335
0.12748,0.10047,0.0090957
0.12768,0.10814,0.009751
0.12789,0.093549,0.0086858
0.12809,0.081158,0.0084156
0.12829,0.11011,0.0096945
0.1285,0.089475,0.0089031
0.1287,0.10203,0.0089483
0.12891,0.091052,0.0090155
0.12911,0.10068,0.0088299
0.12931,0.10318,0.0094192
0.12952,0.099015,0.0091933
0.12972,0.10653,0.0092372
0.12992,0.094667,0.0093734
0.13013,0.10079,0.0088057
0.13033,0.0992,0.0089445
0.13054,0.10264,0.0092927
0.13074,0.10943,0.0095606
0.13094,0.09989,0.0090068
0.13115,0.10345,0.0096469
0.13135,0.10336,0.0088311
0.13156,0.09936,0.009347
0.13176,0.096402,0.0087278
0.13196,0.1018,0.0092548
0.13217,0.091772,0.0086331
0.13237,0.082803,0.0084074
0.13257,0.12166,0.0097718
0.13278,0.087712,0.0084401
0.13298,0.11067,0.0093202
0.13319,0.1013,0.0091341
0.13339,0.10763,0.0095505
0.13359,0.093256,0.008443
0.1338,0.097875,0.0090101
0.134,0.089903,0.0084573
0.13421,0.098961,0.0089964
0.13441,0.10808,0.0093368
0.13461,0.082604,0.0082194
0.13482,0.11131,0.0094753
0.13502,0.084751,0.0084751
0.13523,0.092373,0.0082954
0.13543,0.10296,0.0092086
0.13563,0.11096,0.0091208
0.13584,0.09577,0.0090093
0.13604,0.099918,0.0087973
0.13624,0.091148,0.0085745
0.13645,0.087922,0.0084214
0.13665,0.089076,0.0083064
0.13686,0.098096,0.0086036
0.13706,0.093092,0.0086064
0.13726,0.10025,0.0091518
0.13747,0.096415,0.008729
0.13767,0.1059,0.0091483
0.13788,0.12064,0.0094206
0.13808,0.098715,0.0090492
0.13828,0.097471,0.0085488
0.13849,0.093079,0.0087561
0.13869,0.095483,0.0087164
0.13889,0.087537,0.0081276
0.1391,0.10188,0.008768
0.1393,0.093904,0.0087949
0.13951,0.10036,0.0085126
0.13971,0.094571,0.0088574
0.13991,0.11229,0.0093576
0.14012,0.092694,0.0082578
0.14032,0.12168,0.0097737
0.14053,0.097233,0.0084312
0.14073,0.089161,0.0085401
0.14093,0.080564,0.0079
0.14114,0.098258,0.0087535
0.14134,0.088841,0.0081101
0.14154,0.11457,0.0095809
0.14175,0.085782,0.0077984
0.14195,0.10027,0.0089323
0.14216,0.082615,0.0077718
0.14236,0.11292,0.0095774
0.14256,0.092851,0.0082392
0.14277,0.093738,0.0085216
0.14297,0.096733,0.0085169
0.14318,0.090734,0.0082486
0.14338,0.10506,0.0088476
0.14358,0.10551,0.0089818
0.14379,0.092515,0.0084104
0.14399,0.089588,0.0081443
0.1442,0.10566,0.0089301
0.1444,0.097132,0.0082985
0.1446,0.099476,0.0088974
0.14481,0.094631,0.0083971
0.14501,0.10407,0.0088914
0.14521,0.087921,0.0079928
0.14542,0.097613,0.0085285
0.14562,0.090829,0.008124
0.14583,0.09452,0.0085574
0.14603,0.089881,0.0080073
0.14623,0.096246,0.0089363
0.14644,0.086887,0.00771
0.14664,0.095974,0.0081996
0.14685,0.09802,0.0088024
0.14705,0.09197,0.0078864
0.14725,0.093912,0.0086453
0.14746,0.10072,0.0088339
0.14766,0.099205,0.0082385
0.14786,0.10472,0.0086963
0.14807,0.09404,0.0083447
0.14827,0.10219,0.0084868
0.14848,0.096649,0.009052
0.14868,0.079558,0.0072931
0.14888,0.10725,0.0089685
0.14909,0.087217,0.0078641
0.14929,0.087036,0.0078798
0.1495,0.10915,0.0088244
0.1497,0.10575,0.0089058
0.1499,0.087575,0.007833
0.15011,0.093899,0.0083652
0.15031,0.094447,0.008159
0.15051,0.099382,0.0083695
0.15072,0.10284,0.0087546
0.15092,0.10385,0.0084793
0.15113,0.092094,0.0083378
0.15133,0.10299,0.0084947
0.15153,0.097029,0.0083202
0.15174,0.092749,0.0081346
0.15194,0.096317,0.0082896
0.15215,0.067158,0.0068189
0.15235,0.086646,0.0080104
0.15255,0.10668,0.0085691
0.15276,0.10285,0.0087551
0.15296,0.098316,0.0082505
0.15317,0.089479,0.0078478
0.15337,0.089186,0.007977
0.15357,0.10681,0.0085242
0.15378,0.10008,0.0087773
0.15398,0.10607,0.0085194
0.15418,0.091312,0.0078589
0.15439,0.10354,0.0085691
0.15459,0.1044,0.008553
0.1548,0.094434,0.0080388
0.155,0.085391,0.0082167
0.1552,0.081404,0.0071951
0.15541,0.074332,0.0073964
0.15561,0.088572,0.0075673
0.15582,0.1003,0.0083586
0.15602,0.09979,0.0084641
0.15622,0.083378,0.007809
0.15643,0.08377,0.007319
0.15663,0.08923,0.0080785
0.15683,0.10121,0.0080013
0.15704,0.083795,0.0077802
0.15724,0.085818,0.0078016
0.15745,0.099438,0.0082015
0.15765,0.09556,0.0081346
0.15785,0.086586,0.0076532
0.15806,0.099176,0.0080977
0.15826,0.090238,0.007976
0.15847,0.094332,0.0081796
0.15867,0.08858,0.0075679
0.15887,0.08518,0.0079431
0.15908,0.088717,0.0074713
0.15928,0.10483,0.0086754
0.15948,0.084703,0.0074005
0.15969,0.098554,0.0082128
0.15989,0.090873,0.0079095
0.1601,0.098446,0.0082325
0.1603,0.078023,0.0071826
0.1605,0.092681,0.0079183
0.16071,0.10191,0.0081859
0.16091,0.087778,0.0075547
0.16112,0.087599,0.0079308
0.16132,0.09271,0.0078076
0.16152,0.085182,0.0076806
0.16173,0.077183,0.0069878
0.16193,0.08583,0.0078027
0.16214,0.090612,0.007551
0.16234,0.10343,0.0083895
0.16254,0.083703,0.0077055
0.16275,0.087102,0.0076988
0.16295,0.08334,0.0071464
0.16315,0.085186,0.007681
0.16336,0.092765,0.0075996
0.16356,0.08234,0.0074855
0.16377,0.093778,0.0081316
0.16397,0.084224,0.0072222
0.16417,0.09255,0.0079361
0.16438,0.080938,0.0070987
0.16458,0.072651,0.0069909
0.16479,0.081727,0.0075236
0.16499,0.10088,0.0080772
0.16519,0.073575,0.0070151
0.1654,0.086318,0.007513
0.1656,0.095553,0.0075542
0.1658,0.088143,0.0078837
0.16601,0.090243,0.007682
0.16621,0.093909,0.0078806
0.16642,0.09613,0.0079286
0.16662,0.082373,0.0071427
0.16682,0.091748,0.0076192
0.16703,0.10376,0.0083071
0.16723,0.083977,0.0073092
0.16744,0.088781,0.0076411
0.16764,0.091641,0.0078294
0.16784,0.084915,0.0071766
0.16805,0.078714,0.0072771
0.16825,0.078463,0.0070462
0.16845,0.088126,0.0076129
0.16866,0.099629,0.0078763
0.16886,0.094704,0.007892
0.16907,0.083886,0.0072467
0.16927,0.084012,0.0076061
0.16947,0.078817,0.0067585
0.16968,0.093515,0.0080485
0.16988,0.09236,0.0073712
0.17009,0.084628,0.0077255
0.17029,0.08581,0.0072523
0.17049,0.081096,0.0070319
0.1707,0.093914,0.0077724
0.1709,0.08469,0.0072621
0.17111,0.09176,0.0076202
0.17131,0.095292,0.0080537
0.17151,0.074391,0.006735
0.17172,0.099545,0.0078944
0.17192,0.085261,0.0073655
0.17212,0.086788,0.0071099
0.17233,0.084828,0.0077117
0.17253,0.08415,0.0071633
0.17274,0.089608,0.0076557
0.17294,0.092939,0.0074893
0.17314,0.078456,0.006881
0.17335,0.086591,0.0072665
0.17355,0.081159,0.0073478
0.17376,0.0933,0.0075428
0.17396,0.077415,0.0070378
0.17416,0.077851,0.0069082
0.17437,0.088255,0.007206
0.17457,0.093397,0.0079505
0.17477,0.081103,0.006806
0.17498,0.10772,0.0084895
0.17518,0.079693,0.0069895
0.17539,0.090865,0.007444
0.17559,0.10061,0.0076942
0.17579,0.091952,0.0077993
0.176,0.081678,0.0068302
0.1762,0.096786,0.0080937
0.17641,0.081664,0.0070026
0.17661,0.079477,0.006944
0.17681,0.09051,0.0075688
0.17702,0.077873,0.0066532
0.17722,0.075504,0.0069507
0.17742,0.089017,0.0072925
0.17763,0.080735,0.0070539
0.17783,0.096785,0.0076041
0.17804,0.094911,0.0076482
0.17824,0.077465,0.0068204
0.17844,0.081164,0.0070914
0.17865,0.088678,0.0070999
0.17885,0.083083,0.0073724
0.17906,0.078068,0.0069003
0.17926,0.085326,0.0070859
0.17946,0.084339,0.0071535
0.17967,0.090035,0.0072789
0.17987,0.074025,0.0067019
0.18008,0.074801,0.0067721
0.18028,0.086659,0.0071233
0.18048,0.078907,0.0070296
0.18069,0.099399,0.0075354
0.18089,0.08769,0.0070435
0.18109,0.070266,0.0067613
0.1813,0.081977,0.0069284
0.1815,0.083111,0.0072339
0.18171,0.092395,0.0073739
0.18191,0.097501,0.0073915
0.18211,0.092105,0.0074954
0.18232,0.079851,0.0068725
0.18252,0.080039,0.0068632
0.18273,0.08068,0.0072453
0.18293,0.080752,0.0065715
0.18313,0.079318,0.0070108
0.18334,0.091684,0.0073642
0.18354,0.079984,0.0067599
0.18374,0.085564,0.0072058
0.18395,0.07808,0.0068481
0.18415,0.079002,0.0066065
0.18436,0.077874,0.0069653
0.18456,0.090784,0.0071327
0.18476,0.082162,0.0069193
0.18497,0.08438,0.0072893
0.18517,0.081879,0.0066633
0.18538,0.079523,0.0070016
0.18558,0.075008,0.0065786
0.18578,0.092531,0.0073614
0.18599,0.09244,0.0072853
0.18619,0.086652,0.0071961
0.18639,0.080876,0.0067164
0.1866,0.074078,0.0068485
0.1868,0.079671,0.0064835
0.18701,0.083495,0.0070819
0.18721,0.081708,0.0068327
0.18741,0.07699,0.0065068
0.18762,0.079949,0.0070392
0.18782,0.08088,0.0067167
0.18803,0.084098,0.0071076
0.18823,0.073982,0.0064393
0.18843,0.095069,0.0073347
0.18864,0.075015,0.0065793
0.18884,0.085353,0.0070882
0.18905,0.075503,0.0064743
0.18925,0.085863,0.0072567
0.18945,0.087334,0.0067581
0.18966,0.081283,0.00697
0.18986,0.079245,0.0067457
0.19006,0.085796,0.0068692
0.19027,0.088911,0.0073084
0.19047,0.082887,0.0067677
0.19068,0.071712,0.0062655
0.19088,0.082658,0.0070109
0.19108,0.084369,0.0067334
0.19129,0.077713,0.0067134
0.19149,0.085539,0.0072815
0.1917,0.080829,0.0064304
0.1919,0.086229,0.0071609
0.1921,0.082061,0.006656
0.19231,0.084642,0.0068881
0.19251,0.095961,0.0075162
0.19271,0.085356,0.0069006
0.19292,0.0794,0.0066398
0.19312,0.077093,0.0068409
0.19333,0.072526,0.006065
0.19353,0.097439,0.0075176
0.19373,0.076647,0.0064778
0.19394,0.07956,0.0065845
0.19414,0.079309,0.006903
0.19435,0.072831,0.0061998
0.19455,0.069726,0.0063127
0.19475,0.090256,0.0071131
0.19496,0.082768,0.0066696
0.19516,0.075846,0.0065521
0.19536,0.088015,0.0070244
0.19557,0.066413,0.0059882
0.19577,0.071345,0.006433
0.19598,0.078457,0.0063637
0.19618,0.066954,0.0062165
0.19638,0.077564,0.006532
0.19659,0.064113,0.0059527
0.19679,0.06964,0.006204
0.197,0.073167,0.0062284
0.1972,0.078116,0.0065097
0.1974,0.077741,0.0066178
0.19761,0.066881,0.005982
0.19781,0.073589,0.0064542
0.19802,0.066381,0.0061901
0.19822,0.076291,0.0061677
0.19842,0.081343,0.0068022
0.19863,0.07933,0.0064134
0.19883,0.072888,0.0063927
0.19903,0.070867,0.0062884
0.19924,0.069543,0.0061709
0.19944,0.07126,0.0061331
0.19965,0.089682,0.0073225
0.19985,0.075402,0.0060177
0.20005,0.078515,0.0067826
0.20026,0.070943,0.0061058
0.20046,0.085902,0.0067491
0.20067,0.067542,0.0062443
0.20087,0.071698,0.0059542
0.20107,0.068452,0.0061226
0.20128,0.079276,0.0067485
0.20148,0.064481,0.0057445
0.20168,0.073649,0.0062922
0.20189,0.073587,0.0063334
0.20209,0.084953,0.0065937
0.2023,0.074319,0.0065182
0.2025,0.072313,0.0060052
0.2027,0.066808,0.0061502
0.20291,0.071314,0.0062789
0.20311,0.068236,0.0059618
0.20332,0.062786,0.0057315
0.20352,0.083413,0.006636
0.20372,0.071363,0.0060969
0.20393,0.060492,0.0057159
0.20413,0.065113,0.0058239
0.20433,0.074485,0.006387
0.20454,0.068323,0.0061605
0.20474,0.069743,0.0058119
0.20495,0.067828,0.0060667
0.20515,0.058348,0.0054648
0.20535,0.074488,0.0063873
0.20556,0.067436,0.0060077
0.20576,0.064124,0.0058055
0.20597,0.074082,0.006131
0.20617,0.053535,0.0054925
0.20637,0.061997,0.0054798
0.20658,0.052032,0.0054544
0.20678,0.045803,0.0047495
0.20699,0.056243,0.0054372
0.20719,0.046566,0.0049924
0.20739,0.047481,0.004846
0.2076,0.045289,0.0049123
0.2078,0.043071,0.0048459
0.208,0.044514,0.0046922
0.20821,0.048708,0.005106
0.20841,0.039754,0.0045012
0.20862,0.040927,0.0045475
0.20882,0.034143,0.0044078
0.20902,0.038756,0.0043062
0.20923,0.032169,0.004188
0.20943,0.025346,0.0036584
0.20964,0.028194,0.0037344
0.20984,0.029048,0.0038817
0.21004,0.032763,0.0040954
0.21025,0.028435,0.0037663
0.21045,0.025868,0.0037732
0.21065,0.022658,0.0033408
0.21086,0.02438,0.0035562
0.21106,0.02752,0.0038919
0.21127,0.02047,0.0030859
0.21147,0.018284,0.0031358
0.21167,0.018877,0.0030623
0.21188,0.020321,0.003254
0.21208,0.013488,0.0026451
0.21229,0.012862,0.0025224
0.21249,0.012579,0.0025159
0.21269,0.01071,0.0024569
0.2129,0.0089104,0.0020442
0.2131,0.012202,0.0025442
0.2133,0.0064858,0.0017988
0.21351,0.0045094,0.0015031
0.21371,0.0066851,0.0018541
0.21392,0.0047856,0.0015133
0.21412,0.0063953,0.0018462
0.21432,0.0062256,0.0017972
0.21453,0.0043605,0.0014535
0.21473,0.0056076,0.0016908
0.21494,0.0049894,0.0015778
0.21514,0.0063248,0.0017542
0.21534,0.0054536,0.0017246
0.21555,0.00327,0.001236
0.21575,0.0054035,0.0017087
0.21596,0.0029314,0.0011967
0.21616,0.00342,0.0012926
0.21636,0.0060651,0.0017508
0.21657,0.0048858,0.001545
0.21677,0.0029561,0.0012068
0.21697,0.005282,0.0016703
0.21718,0.0043076,0.0014359
0.21738,0.0029939,0.0012223
0.21759,0.0026651,0.0011919
0.21779,0.0013688,0.0007903
0.21799,0.0031982,0.0013056
0.2182,0.0047095,0.0014893
0.2184,0.0020132,0.0010066
0.21861,0.003569,0.001349
0.21881,0.0018991,0.00094955
0.21901,0.0024951,0.0011158
0.21922,0.0047975,0.0015992
0.21942,0.0040284,0.0013428
0.21962,0.001096,0.000775
0.21983,0.004205,0.0014017
0.22003,0.0033507,0.0012665
0.22024,0.0041514,0.0014677
0.22044,0.0028373,0.0011583
0.22064,0.0040267,0.0014237
0.22085,0.0060143,0.0017362
0.22105,0.00471,0.0014894
0.22126,0.004435,0.0014783
0.22146,0.0043981,0.001466
0.22166,0.0029078,0.0011871
0.22187,0.0015298,0.00088322
0.22207,0.0055193,0.0015933
0.22227,0.0035541,0.0013433
0.22248,0.0014661,0.00084644
0.22268,0.0019071,0.00095356
0.22289,0.0014661,0.00084646
0.22309,0.0024035,0.0010749
0.22329,0.0014246,0.00082248
0.2235,0.0030866,0.0012601
0.2237,0.0017907,0.00089536
0.22391,0.001988,0.00099401
0.22411,0.0024642,0.001102
0.22431,0.0037237,0.0013165
0.22452,0.0029324,0.0011971
0.22472,0.0029324,0.0011972
0.22493,0.0019151,0.00095753
0.22513,0.0014662,0.00084653
0.22533,0.0013964,0.00080623
0.22554,0.0014541,0.00083955
0.22574,0.00204,0.00102
0.22594,0.001764,0.00088198
0.22615,0.0015301,0.00088338
0.22635,0.0013535,0.00078145
0.22656,0.0034357,0.0012986
0.22676,0.0029327,0.0011973
0.22696,0.00092006,0.00065058
0.22717,0.0014306,0.00082595
0.22737,0.0020139,0.001007
0.22758,0.0008921,0.00063081
0.22778,0.0019552,0.0009776
0.22798,0.0014078,0.00081277
0.22819,0.0033113,0.0012515
0.22839,0.00050134,0.00050134
0.22859,0.00044607,0.00044607
0.2288,0.0015041,0.00086837
0.229,0.00045296,0.00045296
0.22921,0.00047885,0.00047885
0.22941,0.0014135,0.00081608
0.22961,0.00094996,0.00067173
0.22982,0.00092744,0.0006558
0.23002,0,NaN
0.23023,0.00087555,0.00061911
0.23043,0.00095,0.00067175
0.23063,0.00048886,0.00048886
0.23084,0.00044108,0.00044108
0.23104,0.0019886,0.0009943
0.23124,0.00044612,0.00044612
0.23145,0.00097369,0.0006885
0.23165,0,NaN
0.23186,0.00046933,0.00046933
0.23206,0.00092388,0.00065328
0.23226,0,NaN
0.23247,0,NaN
0.23267,0,NaN
0.23288,0,NaN
0.23308,0,NaN
0.23328,0,NaN
0.23349,0.00043947,0.00043947
0.23369,0,NaN
0.2339,0.0013697,0.00079082
0.2341,0.00088228,0.00062386
0.2343,0,NaN
0.23451,0,NaN
0.23471,0,NaN
0.23491,0.00049513,0.00049513
0.23512,0.00042211,0.00042211
0.23532,0.00047897,0.00047897
0.23553,0,NaN
0.23573,0,NaN
0.23593,0.00045485,0.00045485
0.23614,0,NaN
0.23634,0.00090272,0.00063832
0.23655,0,NaN
0.23675,0,NaN
0.23695,0.00047131,0.00047131
0.23716,0.00045665,0.00045665
0.23736,0,NaN
0.23756,0,NaN
0.23777,0,NaN
0.23797,0.00089933,0.00063592
0.23818,0,NaN
0.23838,0.00044625,0.00044625
0.23858,0,NaN
0.23879,0,NaN
0.23899,0,NaN
0.2392,0,NaN
0.2394,0.00041768,0.00041768
0.2396,0.00047518,0.00047518
0.23981,0,NaN
0.24001,0.00043471,0.00043471
0.24021,0,NaN
0.24042,0.00044629,0.00044629
0.24062,0,NaN
0.24083,0,NaN
0.24103,0.00044801,0.00044801
0.24123,0,NaN
0.24144,0.00049527,0.00049527
0.24164,0,NaN
0.24185,0.00048505,0.00048505
0.24205,0.00045497,0.00045497
0.24225,0.00043315,0.00043315
0.24246,0,NaN
0.24266,0,NaN
0.24287,0.00043801,0.00043801
0.24307,0.00045676,0.00045676
0.24327,0.00086634,0.00061259
0.24348,0.00044466,0.00044466
0.24368,0,NaN
0.24388,0.00042688,0.00042688
0.24409,0,NaN
0.24429,0,NaN
0.2445,0,NaN
0.2447,0,NaN
0.2449,0.00042229,0.00042229
0.24511,0.00044638,0.00044638
0.24531,0,NaN
0.24552,0,NaN
0.24572,0,NaN
0.24592,0,NaN
0.24613,0,NaN
0.24633,0.00046041,0.00046041
0.24653,0.00041781,0.00041781
0.24674,0,NaN
0.24694,0,NaN
0.24715,0.00043007,0.00043007
0.24735,0.00045332,0.00045332
0.24755,0.00042695,0.00042695
0.24776,0.00043486,0.00043486
0.24796,0.00044307,0.00044307
0.24817,0,NaN
0.24837,0.001409,0.00081348
0.24857,0.0004301,0.0004301
0.24878,0,NaN
0.24898,0,NaN
0.24918,0,NaN
0.24939,0,NaN
0.24959,0.00046048,0.00046048
0.2498,0.00041937,0.00041937
0.25,0.00043979,0.00043979
0.2502,0,NaN
0.25041,0,NaN
0.25061,0.00045692,0.00045692
0.25082,0,NaN
0.25102,0.00043654,0.00043654
0.25122,0,NaN
0.25143,0.00087964,0.000622
0.25163,0,NaN
0.25184,0.00045694,0.00045694
0.25204,0,NaN
0.25224,0.00094707,0.00066968
0.25245,0,NaN
0.25265,0.00044824,0.00044824
0.25285,0.00043658,0.00043658
0.25306,0,NaN
0.25326,0,NaN
0.25347,0,NaN
0.25367,0,NaN
