A1,6.081,4.853
A2,15.081,4.68
A3,24.079,4.732
A4,33.043,4.723
A5,42.014,4.816
A6,50.968,4.814
A8,68.915,4.822
A9,77.929,4.898
A11,95.788,4.904
A12,104.734,4.981
B12,104.744,13.948
B11,95.712,13.948
B10,86.821,13.848
B9,77.874,13.82
B8,68.933,13.823
B7,59.926,13.799
B6,50.989,13.756
B5,42.0,13.731
B4,33.011,13.663
B3,24.02,13.69
B2,15.006,13.622
B1,5.901,13.495
C1,5.974,22.693
C2,14.981,22.71
C3,23.988,22.709
C4,32.994,22.777
C5,41.94,22.801
C6,50.921,22.852
C7,59.886,22.783
C8,68.84,22.867
C9,77.726,22.917
C10,86.776,22.925
C11,95.49,22.983
C12,104.557,22.913
D12,104.505,32.121
D11,95.527,31.925
D10,86.648,31.969
D9,77.839,31.902
D8,68.737,31.945
D7,59.806,31.87
D6,50.846,31.835
D5,41.899,31.837
D4,32.966,31.628
D3,23.894,31.786
D2,14.922,31.762
D1,5.949,31.746
E1,5.882,40.79
E2,14.845,40.815
E3,23.885,40.822
E4,32.842,40.83
E5,41.805,40.838
E6,50.777,40.914
E7,59.749,40.973
E8,68.704,41.023
E9,77.557,40.962
E10,86.571,41.021
E11,95.527,41.002
E12,104.428,41.157
F12,104.44,50.1
F11,95.486,50.031
F10,86.608,50.032
F9,77.637,49.904
F8,68.622,49.896
F7,59.649,49.948
F6,50.754,49.881
F5,41.782,49.839
F4,32.791,49.831
F3,23.769,49.789
F2,14.779,49.764
F1,5.802,49.794
G1,5.766,58.672
G2,14.742,58.705
G3,23.762,58.739
G4,32.743,58.789
G5,41.741,58.814
G6,50.679,58.84
G7,59.659,58.898
G8,68.571,58.906
G9,77.629,58.94
G10,86.553,58.953
G11,95.539,58.998
G12,104.391,59.082
H12,104.374,68.102
H11,95.516,68.008
H10,86.577,67.976
H9,77.588,67.924
H8,68.589,67.933
H7,59.643,67.926
H6,50.653,67.884
H5,41.698,67.85
H4,32.692,67.799
H3,23.686,67.741
H2,14.756,67.783
H1,5.715,67.725
