;; script uuid = ad501cfe-3d82-11e4-a75e-0023543744f0
;; estimated script runtime 1:07:47

SCRIPT START
REALTIME(32)
LIVETIME(30)

;; 0 of 89
MPA3 CLEAR
DATA_INFO(A1 SC1 plateID 934 1 of 89 source ad501cfe-3d82-11e4-a75e-0023543744f0,Sintsov,2014-09-16 13:20:19.061232,,,,,,,,)
MM(6.390,3.886)
MPA3 START
WAIT FOR MPA3
MPA3 STORE()

;; 1 of 89
MPA3 CLEAR
DATA_INFO(A2 SC1 plateID 934 2 of 89 source ad501cfe-3d82-11e4-a75e-0023543744f0,Sintsov,2014-09-16 13:20:19.061232,,,,,,,,)
MM(15.354,3.685)
MPA3 START
WAIT FOR MPA3
MPA3 STORE()

;; 2 of 89
MPA3 CLEAR
DATA_INFO(A3 SC1 plateID 934 3 of 89 source ad501cfe-3d82-11e4-a75e-0023543744f0,Sintsov,2014-09-16 13:20:19.061232,,,,,,,,)
MM(24.322,3.690)
MPA3 START
WAIT FOR MPA3
MPA3 STORE()

;; 3 of 89
MPA3 CLEAR
DATA_INFO(A4 SC1 plateID 934 4 of 89 source ad501cfe-3d82-11e4-a75e-0023543744f0,Sintsov,2014-09-16 13:20:19.061232,,,,,,,,)
MM(33.294,3.753)
MPA3 START
WAIT FOR MPA3
MPA3 STORE()

;; 4 of 89
MPA3 CLEAR
DATA_INFO(A5 SC1 plateID 934 5 of 89 source ad501cfe-3d82-11e4-a75e-0023543744f0,Sintsov,2014-09-16 13:20:19.061232,,,,,,,,)
MM(42.296,3.794)
MPA3 START
WAIT FOR MPA3
MPA3 STORE()

;; 5 of 89
MPA3 CLEAR
DATA_INFO(A6 SC1 plateID 934 6 of 89 source ad501cfe-3d82-11e4-a75e-0023543744f0,Sintsov,2014-09-16 13:20:19.061232,,,,,,,,)
MM(51.184,3.893)
MPA3 START
WAIT FOR MPA3
MPA3 STORE()

;; 6 of 89
MPA3 CLEAR
DATA_INFO(A7 SC1 plateID 934 7 of 89 source ad501cfe-3d82-11e4-a75e-0023543744f0,Sintsov,2014-09-16 13:20:19.061232,,,,,,,,)
MM(60.215,3.807)
MPA3 START
WAIT FOR MPA3
MPA3 STORE()

;; 7 of 89
MPA3 CLEAR
DATA_INFO(A8 SC1 plateID 934 8 of 89 source ad501cfe-3d82-11e4-a75e-0023543744f0,Sintsov,2014-09-16 13:20:19.061232,,,,,,,,)
MM(69.009,3.985)
MPA3 START
WAIT FOR MPA3
MPA3 STORE()

;; 8 of 89
MPA3 CLEAR
DATA_INFO(A9 SC1 plateID 934 9 of 89 source ad501cfe-3d82-11e4-a75e-0023543744f0,Sintsov,2014-09-16 13:20:19.061232,,,,,,,,)
MM(78.117,3.886)
MPA3 START
WAIT FOR MPA3
MPA3 STORE()

;; 9 of 89
MPA3 CLEAR
DATA_INFO(A10 SC1 plateID 934 10 of 89 source ad501cfe-3d82-11e4-a75e-0023543744f0,Sintsov,2014-09-16 13:20:19.061232,,,,,,,,)
MM(87.119,3.907)
MPA3 START
WAIT FOR MPA3
MPA3 STORE()

;; 10 of 89
MPA3 CLEAR
DATA_INFO(A11 SC1 plateID 934 11 of 89 source ad501cfe-3d82-11e4-a75e-0023543744f0,Sintsov,2014-09-16 13:20:19.061232,,,,,,,,)
MM(96.126,3.946)
MPA3 START
WAIT FOR MPA3
MPA3 STORE()

;; 11 of 89
MPA3 CLEAR
DATA_INFO(A12 SC1 plateID 934 12 of 89 source ad501cfe-3d82-11e4-a75e-0023543744f0,Sintsov,2014-09-16 13:20:19.061232,,,,,,,,)
MM(105.065,4.029)
MPA3 START
WAIT FOR MPA3
MPA3 STORE()

;; 12 of 89
MPA3 CLEAR
DATA_INFO(B12 SC1 plateID 934 13 of 89 source ad501cfe-3d82-11e4-a75e-0023543744f0,Sintsov,2014-09-16 13:20:19.061232,,,,,,,,)
MM(105.013,12.847)
MPA3 START
WAIT FOR MPA3
MPA3 STORE()

;; 13 of 89
MPA3 CLEAR
DATA_INFO(B11 SC1 plateID 934 14 of 89 source ad501cfe-3d82-11e4-a75e-0023543744f0,Sintsov,2014-09-16 13:20:19.061232,,,,,,,,)
MM(96.032,12.825)
MPA3 START
WAIT FOR MPA3
MPA3 STORE()

;; 14 of 89
MPA3 CLEAR
DATA_INFO(B10 SC1 plateID 934 15 of 89 source ad501cfe-3d82-11e4-a75e-0023543744f0,Sintsov,2014-09-16 13:20:19.061232,,,,,,,,)
MM(87.106,12.803)
MPA3 START
WAIT FOR MPA3
MPA3 STORE()

;; 15 of 89
MPA3 CLEAR
DATA_INFO(B9 SC1 plateID 934 16 of 89 source ad501cfe-3d82-11e4-a75e-0023543744f0,Sintsov,2014-09-16 13:20:19.061232,,,,,,,,)
MM(78.117,12.824)
MPA3 START
WAIT FOR MPA3
MPA3 STORE()

;; 16 of 89
MPA3 CLEAR
DATA_INFO(B8 SC1 plateID 934 17 of 89 source ad501cfe-3d82-11e4-a75e-0023543744f0,Sintsov,2014-09-16 13:20:19.061232,,,,,,,,)
MM(69.116,12.845)
MPA3 START
WAIT FOR MPA3
MPA3 STORE()

;; 17 of 89
MPA3 CLEAR
DATA_INFO(B7 SC1 plateID 934 18 of 89 source ad501cfe-3d82-11e4-a75e-0023543744f0,Sintsov,2014-09-16 13:20:19.061232,,,,,,,,)
MM(60.142,12.805)
MPA3 START
WAIT FOR MPA3
MPA3 STORE()

;; 18 of 89
MPA3 CLEAR
DATA_INFO(B6 SC1 plateID 934 19 of 89 source ad501cfe-3d82-11e4-a75e-0023543744f0,Sintsov,2014-09-16 13:20:19.061232,,,,,,,,)
MM(51.217,12.724)
MPA3 START
WAIT FOR MPA3
MPA3 STORE()

;; 19 of 89
MPA3 CLEAR
DATA_INFO(B5 SC1 plateID 934 20 of 89 source ad501cfe-3d82-11e4-a75e-0023543744f0,Sintsov,2014-09-16 13:20:19.061232,,,,,,,,)
MM(42.238,12.664)
MPA3 START
WAIT FOR MPA3
MPA3 STORE()

;; 20 of 89
MPA3 CLEAR
DATA_INFO(B4 SC1 plateID 934 21 of 89 source ad501cfe-3d82-11e4-a75e-0023543744f0,Sintsov,2014-09-16 13:20:19.061232,,,,,,,,)
MM(33.248,12.668)
MPA3 START
WAIT FOR MPA3
MPA3 STORE()

;; 21 of 89
MPA3 CLEAR
DATA_INFO(B3 SC1 plateID 934 22 of 89 source ad501cfe-3d82-11e4-a75e-0023543744f0,Sintsov,2014-09-16 13:20:19.061232,,,,,,,,)
MM(24.267,12.634)
MPA3 START
WAIT FOR MPA3
MPA3 STORE()

;; 22 of 89
MPA3 CLEAR
DATA_INFO(B2 SC1 plateID 934 23 of 89 source ad501cfe-3d82-11e4-a75e-0023543744f0,Sintsov,2014-09-16 13:20:19.061232,,,,,,,,)
MM(15.293,12.606)
MPA3 START
WAIT FOR MPA3
MPA3 STORE()

;; 23 of 89
MPA3 CLEAR
DATA_INFO(B1 SC1 plateID 934 24 of 89 source ad501cfe-3d82-11e4-a75e-0023543744f0,Sintsov,2014-09-16 13:20:19.061232,,,,,,,,)
MM(6.349,12.648)
MPA3 START
WAIT FOR MPA3
MPA3 STORE()

;; 24 of 89
MPA3 CLEAR
DATA_INFO(C1 SC1 plateID 934 25 of 89 source ad501cfe-3d82-11e4-a75e-0023543744f0,Sintsov,2014-09-16 13:20:19.061232,,,,,,,,)
MM(6.273,21.663)
MPA3 START
WAIT FOR MPA3
MPA3 STORE()

;; 25 of 89
MPA3 CLEAR
DATA_INFO(C2 SC1 plateID 934 26 of 89 source ad501cfe-3d82-11e4-a75e-0023543744f0,Sintsov,2014-09-16 13:20:19.061232,,,,,,,,)
MM(15.234,21.691)
MPA3 START
WAIT FOR MPA3
MPA3 STORE()

;; 26 of 89
MPA3 CLEAR
DATA_INFO(C3 SC1 plateID 934 27 of 89 source ad501cfe-3d82-11e4-a75e-0023543744f0,Sintsov,2014-09-16 13:20:19.061232,,,,,,,,)
MM(24.209,21.725)
MPA3 START
WAIT FOR MPA3
MPA3 STORE()

;; 27 of 89
MPA3 CLEAR
DATA_INFO(C4 SC1 plateID 934 28 of 89 source ad501cfe-3d82-11e4-a75e-0023543744f0,Sintsov,2014-09-16 13:20:19.061232,,,,,,,,)
MM(33.209,21.744)
MPA3 START
WAIT FOR MPA3
MPA3 STORE()

;; 28 of 89
MPA3 CLEAR
DATA_INFO(C5 SC1 plateID 934 29 of 89 source ad501cfe-3d82-11e4-a75e-0023543744f0,Sintsov,2014-09-16 13:20:19.061232,,,,,,,,)
MM(42.205,21.762)
MPA3 START
WAIT FOR MPA3
MPA3 STORE()

;; 29 of 89
MPA3 CLEAR
DATA_INFO(C6 SC1 plateID 934 30 of 89 source ad501cfe-3d82-11e4-a75e-0023543744f0,Sintsov,2014-09-16 13:20:19.061232,,,,,,,,)
MM(51.169,21.713)
MPA3 START
WAIT FOR MPA3
MPA3 STORE()

;; 30 of 89
MPA3 CLEAR
DATA_INFO(C7 SC1 plateID 934 31 of 89 source ad501cfe-3d82-11e4-a75e-0023543744f0,Sintsov,2014-09-16 13:20:19.061232,,,,,,,,)
MM(60.117,21.841)
MPA3 START
WAIT FOR MPA3
MPA3 STORE()

;; 31 of 89
MPA3 CLEAR
DATA_INFO(C8 SC1 plateID 934 32 of 89 source ad501cfe-3d82-11e4-a75e-0023543744f0,Sintsov,2014-09-16 13:20:19.061232,,,,,,,,)
MM(69.015,21.894)
MPA3 START
WAIT FOR MPA3
MPA3 STORE()

;; 32 of 89
MPA3 CLEAR
DATA_INFO(C9 SC1 plateID 934 33 of 89 source ad501cfe-3d82-11e4-a75e-0023543744f0,Sintsov,2014-09-16 13:20:19.061232,,,,,,,,)
MM(78.050,21.882)
MPA3 START
WAIT FOR MPA3
MPA3 STORE()

;; 33 of 89
MPA3 CLEAR
DATA_INFO(C10 SC1 plateID 934 34 of 89 source ad501cfe-3d82-11e4-a75e-0023543744f0,Sintsov,2014-09-16 13:20:19.061232,,,,,,,,)
MM(87.037,21.913)
MPA3 START
WAIT FOR MPA3
MPA3 STORE()

;; 34 of 89
MPA3 CLEAR
DATA_INFO(C11 SC1 plateID 934 35 of 89 source ad501cfe-3d82-11e4-a75e-0023543744f0,Sintsov,2014-09-16 13:20:19.061232,,,,,,,,)
MM(96.003,21.940)
MPA3 START
WAIT FOR MPA3
MPA3 STORE()

;; 35 of 89
MPA3 CLEAR
DATA_INFO(C12 SC1 plateID 934 36 of 89 source ad501cfe-3d82-11e4-a75e-0023543744f0,Sintsov,2014-09-16 13:20:19.061232,,,,,,,,)
MM(104.970,21.957)
MPA3 START
WAIT FOR MPA3
MPA3 STORE()

;; 36 of 89
MPA3 CLEAR
DATA_INFO(D12 SC1 plateID 934 37 of 89 source ad501cfe-3d82-11e4-a75e-0023543744f0,Sintsov,2014-09-16 13:20:19.061232,,,,,,,,)
MM(104.922,30.955)
MPA3 START
WAIT FOR MPA3
MPA3 STORE()

;; 37 of 89
MPA3 CLEAR
DATA_INFO(D11 SC1 plateID 934 38 of 89 source ad501cfe-3d82-11e4-a75e-0023543744f0,Sintsov,2014-09-16 13:20:19.061232,,,,,,,,)
MM(96.001,30.916)
MPA3 START
WAIT FOR MPA3
MPA3 STORE()

;; 38 of 89
MPA3 CLEAR
DATA_INFO(D10 SC1 plateID 934 39 of 89 source ad501cfe-3d82-11e4-a75e-0023543744f0,Sintsov,2014-09-16 13:20:19.061232,,,,,,,,)
MM(86.998,30.860)
MPA3 START
WAIT FOR MPA3
MPA3 STORE()

;; 39 of 89
MPA3 CLEAR
DATA_INFO(D9 SC1 plateID 934 40 of 89 source ad501cfe-3d82-11e4-a75e-0023543744f0,Sintsov,2014-09-16 13:20:19.061232,,,,,,,,)
MM(78.029,30.881)
MPA3 START
WAIT FOR MPA3
MPA3 STORE()

;; 40 of 89
MPA3 CLEAR
DATA_INFO(D8 SC1 plateID 934 41 of 89 source ad501cfe-3d82-11e4-a75e-0023543744f0,Sintsov,2014-09-16 13:20:19.061232,,,,,,,,)
MM(69.000,30.855)
MPA3 START
WAIT FOR MPA3
MPA3 STORE()

;; 41 of 89
MPA3 CLEAR
DATA_INFO(D7 SC1 plateID 934 42 of 89 source ad501cfe-3d82-11e4-a75e-0023543744f0,Sintsov,2014-09-16 13:20:19.061232,,,,,,,,)
MM(60.056,30.839)
MPA3 START
WAIT FOR MPA3
MPA3 STORE()

;; 42 of 89
MPA3 CLEAR
DATA_INFO(D6 SC1 plateID 934 43 of 89 source ad501cfe-3d82-11e4-a75e-0023543744f0,Sintsov,2014-09-16 13:20:19.061232,,,,,,,,)
MM(51.138,30.841)
MPA3 START
WAIT FOR MPA3
MPA3 STORE()

;; 43 of 89
MPA3 CLEAR
DATA_INFO(D5 SC1 plateID 934 44 of 89 source ad501cfe-3d82-11e4-a75e-0023543744f0,Sintsov,2014-09-16 13:20:19.061232,,,,,,,,)
MM(42.090,30.915)
MPA3 START
WAIT FOR MPA3
MPA3 STORE()

;; 44 of 89
MPA3 CLEAR
DATA_INFO(D4 SC1 plateID 934 45 of 89 source ad501cfe-3d82-11e4-a75e-0023543744f0,Sintsov,2014-09-16 13:20:19.061232,,,,,,,,)
MM(33.147,30.768)
MPA3 START
WAIT FOR MPA3
MPA3 STORE()

;; 45 of 89
MPA3 CLEAR
DATA_INFO(D3 SC1 plateID 934 46 of 89 source ad501cfe-3d82-11e4-a75e-0023543744f0,Sintsov,2014-09-16 13:20:19.061232,,,,,,,,)
MM(24.162,30.734)
MPA3 START
WAIT FOR MPA3
MPA3 STORE()

;; 46 of 89
MPA3 CLEAR
DATA_INFO(D2 SC1 plateID 934 47 of 89 source ad501cfe-3d82-11e4-a75e-0023543744f0,Sintsov,2014-09-16 13:20:19.061232,,,,,,,,)
MM(15.168,30.697)
MPA3 START
WAIT FOR MPA3
MPA3 STORE()

;; 47 of 89
MPA3 CLEAR
DATA_INFO(D1 SC1 plateID 934 48 of 89 source ad501cfe-3d82-11e4-a75e-0023543744f0,Sintsov,2014-09-16 13:20:19.061232,,,,,,,,)
MM(6.205,30.679)
MPA3 START
WAIT FOR MPA3
MPA3 STORE()

;; 48 of 89
MPA3 CLEAR
DATA_INFO(E1 SC1 plateID 934 49 of 89 source ad501cfe-3d82-11e4-a75e-0023543744f0,Sintsov,2014-09-16 13:20:19.061232,,,,,,,,)
MM(6.150,39.785)
MPA3 START
WAIT FOR MPA3
MPA3 STORE()

;; 49 of 89
MPA3 CLEAR
DATA_INFO(E2 SC1 plateID 934 50 of 89 source ad501cfe-3d82-11e4-a75e-0023543744f0,Sintsov,2014-09-16 13:20:19.061232,,,,,,,,)
MM(15.104,39.799)
MPA3 START
WAIT FOR MPA3
MPA3 STORE()

;; 50 of 89
MPA3 CLEAR
DATA_INFO(E3 SC1 plateID 934 51 of 89 source ad501cfe-3d82-11e4-a75e-0023543744f0,Sintsov,2014-09-16 13:20:19.061232,,,,,,,,)
MM(24.092,39.861)
MPA3 START
WAIT FOR MPA3
MPA3 STORE()

;; 51 of 89
MPA3 CLEAR
DATA_INFO(E4 SC1 plateID 934 52 of 89 source ad501cfe-3d82-11e4-a75e-0023543744f0,Sintsov,2014-09-16 13:20:19.061232,,,,,,,,)
MM(33.088,39.851)
MPA3 START
WAIT FOR MPA3
MPA3 STORE()

;; 52 of 89
MPA3 CLEAR
DATA_INFO(E5 SC1 plateID 934 53 of 89 source ad501cfe-3d82-11e4-a75e-0023543744f0,Sintsov,2014-09-16 13:20:19.061232,,,,,,,,)
MM(42.070,39.894)
MPA3 START
WAIT FOR MPA3
MPA3 STORE()

;; 53 of 89
MPA3 CLEAR
DATA_INFO(E6 SC1 plateID 934 54 of 89 source ad501cfe-3d82-11e4-a75e-0023543744f0,Sintsov,2014-09-16 13:20:19.061232,,,,,,,,)
MM(51.033,39.950)
MPA3 START
WAIT FOR MPA3
MPA3 STORE()

;; 54 of 89
MPA3 CLEAR
DATA_INFO(E7 SC1 plateID 934 55 of 89 source ad501cfe-3d82-11e4-a75e-0023543744f0,Sintsov,2014-09-16 13:20:19.061232,,,,,,,,)
MM(59.961,39.977)
MPA3 START
WAIT FOR MPA3
MPA3 STORE()

;; 55 of 89
MPA3 CLEAR
DATA_INFO(E8 SC1 plateID 934 56 of 89 source ad501cfe-3d82-11e4-a75e-0023543744f0,Sintsov,2014-09-16 13:20:19.061232,,,,,,,,)
MM(68.995,39.951)
MPA3 START
WAIT FOR MPA3
MPA3 STORE()

;; 56 of 89
MPA3 CLEAR
DATA_INFO(E9 SC1 plateID 934 57 of 89 source ad501cfe-3d82-11e4-a75e-0023543744f0,Sintsov,2014-09-16 13:20:19.061232,,,,,,,,)
MM(77.976,40.013)
MPA3 START
WAIT FOR MPA3
MPA3 STORE()

;; 57 of 89
MPA3 CLEAR
DATA_INFO(E10 SC1 plateID 934 58 of 89 source ad501cfe-3d82-11e4-a75e-0023543744f0,Sintsov,2014-09-16 13:20:19.061232,,,,,,,,)
MM(86.941,40.052)
MPA3 START
WAIT FOR MPA3
MPA3 STORE()

;; 58 of 89
MPA3 CLEAR
DATA_INFO(E11 SC1 plateID 934 59 of 89 source ad501cfe-3d82-11e4-a75e-0023543744f0,Sintsov,2014-09-16 13:20:19.061232,,,,,,,,)
MM(95.913,40.061)
MPA3 START
WAIT FOR MPA3
MPA3 STORE()

;; 59 of 89
MPA3 CLEAR
DATA_INFO(F12 SC1 plateID 934 60 of 89 source ad501cfe-3d82-11e4-a75e-0023543744f0,Sintsov,2014-09-16 13:20:19.061232,,,,,,,,)
MM(104.803,49.065)
MPA3 START
WAIT FOR MPA3
MPA3 STORE()

;; 60 of 89
MPA3 CLEAR
DATA_INFO(F8 SC1 plateID 934 61 of 89 source ad501cfe-3d82-11e4-a75e-0023543744f0,Sintsov,2014-09-16 13:20:19.061232,,,,,,,,)
MM(68.787,48.960)
MPA3 START
WAIT FOR MPA3
MPA3 STORE()

;; 61 of 89
MPA3 CLEAR
DATA_INFO(F7 SC1 plateID 934 62 of 89 source ad501cfe-3d82-11e4-a75e-0023543744f0,Sintsov,2014-09-16 13:20:19.061232,,,,,,,,)
MM(59.961,48.899)
MPA3 START
WAIT FOR MPA3
MPA3 STORE()

;; 62 of 89
MPA3 CLEAR
DATA_INFO(F6 SC1 plateID 934 63 of 89 source ad501cfe-3d82-11e4-a75e-0023543744f0,Sintsov,2014-09-16 13:20:19.061232,,,,,,,,)
MM(50.991,48.897)
MPA3 START
WAIT FOR MPA3
MPA3 STORE()

;; 63 of 89
MPA3 CLEAR
DATA_INFO(F5 SC1 plateID 934 64 of 89 source ad501cfe-3d82-11e4-a75e-0023543744f0,Sintsov,2014-09-16 13:20:19.061232,,,,,,,,)
MM(42.007,48.843)
MPA3 START
WAIT FOR MPA3
MPA3 STORE()

;; 64 of 89
MPA3 CLEAR
DATA_INFO(F4 SC1 plateID 934 65 of 89 source ad501cfe-3d82-11e4-a75e-0023543744f0,Sintsov,2014-09-16 13:20:19.061232,,,,,,,,)
MM(33.033,48.830)
MPA3 START
WAIT FOR MPA3
MPA3 STORE()

;; 65 of 89
MPA3 CLEAR
DATA_INFO(F3 SC1 plateID 934 66 of 89 source ad501cfe-3d82-11e4-a75e-0023543744f0,Sintsov,2014-09-16 13:20:19.061232,,,,,,,,)
MM(24.035,48.805)
MPA3 START
WAIT FOR MPA3
MPA3 STORE()

;; 66 of 89
MPA3 CLEAR
DATA_INFO(F2 SC1 plateID 934 67 of 89 source ad501cfe-3d82-11e4-a75e-0023543744f0,Sintsov,2014-09-16 13:20:19.061232,,,,,,,,)
MM(15.046,48.740)
MPA3 START
WAIT FOR MPA3
MPA3 STORE()

;; 67 of 89
MPA3 CLEAR
DATA_INFO(F1 SC1 plateID 934 68 of 89 source ad501cfe-3d82-11e4-a75e-0023543744f0,Sintsov,2014-09-16 13:20:19.061232,,,,,,,,)
MM(6.048,48.786)
MPA3 START
WAIT FOR MPA3
MPA3 STORE()

;; 68 of 89
MPA3 CLEAR
DATA_INFO(G1 SC1 plateID 934 69 of 89 source ad501cfe-3d82-11e4-a75e-0023543744f0,Sintsov,2014-09-16 13:20:19.061232,,,,,,,,)
MM(6.001,57.708)
MPA3 START
WAIT FOR MPA3
MPA3 STORE()

;; 69 of 89
MPA3 CLEAR
DATA_INFO(G2 SC1 plateID 934 70 of 89 source ad501cfe-3d82-11e4-a75e-0023543744f0,Sintsov,2014-09-16 13:20:19.061232,,,,,,,,)
MM(14.998,57.645)
MPA3 START
WAIT FOR MPA3
MPA3 STORE()

;; 70 of 89
MPA3 CLEAR
DATA_INFO(G3 SC1 plateID 934 71 of 89 source ad501cfe-3d82-11e4-a75e-0023543744f0,Sintsov,2014-09-16 13:20:19.061232,,,,,,,,)
MM(23.986,57.687)
MPA3 START
WAIT FOR MPA3
MPA3 STORE()

;; 71 of 89
MPA3 CLEAR
DATA_INFO(G4 SC1 plateID 934 72 of 89 source ad501cfe-3d82-11e4-a75e-0023543744f0,Sintsov,2014-09-16 13:20:19.061232,,,,,,,,)
MM(32.969,57.711)
MPA3 START
WAIT FOR MPA3
MPA3 STORE()

;; 72 of 89
MPA3 CLEAR
DATA_INFO(G5 SC1 plateID 934 73 of 89 source ad501cfe-3d82-11e4-a75e-0023543744f0,Sintsov,2014-09-16 13:20:19.061232,,,,,,,,)
MM(42.808,55.493)
MPA3 START
WAIT FOR MPA3
MPA3 STORE()

;; 73 of 89
MPA3 CLEAR
DATA_INFO(G6 SC1 plateID 934 74 of 89 source ad501cfe-3d82-11e4-a75e-0023543744f0,Sintsov,2014-09-16 13:20:19.061232,,,,,,,,)
MM(50.963,57.792)
MPA3 START
WAIT FOR MPA3
MPA3 STORE()

;; 74 of 89
MPA3 CLEAR
DATA_INFO(G7 SC1 plateID 934 75 of 89 source ad501cfe-3d82-11e4-a75e-0023543744f0,Sintsov,2014-09-16 13:20:19.061232,,,,,,,,)
MM(59.915,57.811)
MPA3 START
WAIT FOR MPA3
MPA3 STORE()

;; 75 of 89
MPA3 CLEAR
DATA_INFO(G8 SC1 plateID 934 76 of 89 source ad501cfe-3d82-11e4-a75e-0023543744f0,Sintsov,2014-09-16 13:20:19.061232,,,,,,,,)
MM(68.898,57.888)
MPA3 START
WAIT FOR MPA3
MPA3 STORE()

;; 76 of 89
MPA3 CLEAR
DATA_INFO(G9 SC1 plateID 934 77 of 89 source ad501cfe-3d82-11e4-a75e-0023543744f0,Sintsov,2014-09-16 13:20:19.061232,,,,,,,,)
MM(77.885,57.904)
MPA3 START
WAIT FOR MPA3
MPA3 STORE()

;; 77 of 89
MPA3 CLEAR
DATA_INFO(H12 SC1 plateID 934 78 of 89 source ad501cfe-3d82-11e4-a75e-0023543744f0,Sintsov,2014-09-16 13:20:19.061232,,,,,,,,)
MM(104.723,67.046)
MPA3 START
WAIT FOR MPA3
MPA3 STORE()

;; 78 of 89
MPA3 CLEAR
DATA_INFO(H11 SC1 plateID 934 79 of 89 source ad501cfe-3d82-11e4-a75e-0023543744f0,Sintsov,2014-09-16 13:20:19.061232,,,,,,,,)
MM(95.779,66.999)
MPA3 START
WAIT FOR MPA3
MPA3 STORE()

;; 79 of 89
MPA3 CLEAR
DATA_INFO(H10 SC1 plateID 934 80 of 89 source ad501cfe-3d82-11e4-a75e-0023543744f0,Sintsov,2014-09-16 13:20:19.061232,,,,,,,,)
MM(86.800,66.968)
MPA3 START
WAIT FOR MPA3
MPA3 STORE()

;; 80 of 89
MPA3 CLEAR
DATA_INFO(H9 SC1 plateID 934 81 of 89 source ad501cfe-3d82-11e4-a75e-0023543744f0,Sintsov,2014-09-16 13:20:19.061232,,,,,,,,)
MM(77.860,66.975)
MPA3 START
WAIT FOR MPA3
MPA3 STORE()

;; 81 of 89
MPA3 CLEAR
DATA_INFO(H8 SC1 plateID 934 82 of 89 source ad501cfe-3d82-11e4-a75e-0023543744f0,Sintsov,2014-09-16 13:20:19.061232,,,,,,,,)
MM(68.791,66.895)
MPA3 START
WAIT FOR MPA3
MPA3 STORE()

;; 82 of 89
MPA3 CLEAR
DATA_INFO(H7 SC1 plateID 934 83 of 89 source ad501cfe-3d82-11e4-a75e-0023543744f0,Sintsov,2014-09-16 13:20:19.061232,,,,,,,,)
MM(59.890,66.867)
MPA3 START
WAIT FOR MPA3
MPA3 STORE()

;; 83 of 89
MPA3 CLEAR
DATA_INFO(H6 SC1 plateID 934 84 of 89 source ad501cfe-3d82-11e4-a75e-0023543744f0,Sintsov,2014-09-16 13:20:19.061232,,,,,,,,)
MM(50.893,66.848)
MPA3 START
WAIT FOR MPA3
MPA3 STORE()

;; 84 of 89
MPA3 CLEAR
DATA_INFO(H5 SC1 plateID 934 85 of 89 source ad501cfe-3d82-11e4-a75e-0023543744f0,Sintsov,2014-09-16 13:20:19.061232,,,,,,,,)
MM(41.917,66.814)
MPA3 START
WAIT FOR MPA3
MPA3 STORE()

;; 85 of 89
MPA3 CLEAR
DATA_INFO(H4 SC1 plateID 934 86 of 89 source ad501cfe-3d82-11e4-a75e-0023543744f0,Sintsov,2014-09-16 13:20:19.061232,,,,,,,,)
MM(32.899,66.778)
MPA3 START
WAIT FOR MPA3
MPA3 STORE()

;; 86 of 89
MPA3 CLEAR
DATA_INFO(H3 SC1 plateID 934 87 of 89 source ad501cfe-3d82-11e4-a75e-0023543744f0,Sintsov,2014-09-16 13:20:19.061232,,,,,,,,)
MM(23.778,66.747)
MPA3 START
WAIT FOR MPA3
MPA3 STORE()

;; 87 of 89
MPA3 CLEAR
DATA_INFO(H2 SC1 plateID 934 88 of 89 source ad501cfe-3d82-11e4-a75e-0023543744f0,Sintsov,2014-09-16 13:20:19.061232,,,,,,,,)
MM(14.959,66.705)
MPA3 START
WAIT FOR MPA3
MPA3 STORE()

;; 88 of 89
MPA3 CLEAR
DATA_INFO(H1 SC1 plateID 934 89 of 89 source ad501cfe-3d82-11e4-a75e-0023543744f0,Sintsov,2014-09-16 13:20:19.061232,,,,,,,,)
MM(5.986,66.669)
MPA3 START
WAIT FOR MPA3
MPA3 STORE()

SCRIPT END