;; script uuid = b3da8412-4ec4-11e4-b1f1-0023543744f0
;; estimated script runtime 1:58:35

SCRIPT START
REALTIME(62)
LIVETIME(60)

;; 0 of 94
MPA3 CLEAR
DATA_INFO(A1 SC1 plateID 978 1 of 94 source b3da8412-4ec4-11e4-b1f1-0023543744f0,Sintsov,2014-10-08 12:25:46.589751,,,,,,,,)
MM(5.701,4.229)
MPA3 START
WAIT FOR MPA3
MPA3 STORE()

;; 1 of 94
MPA3 CLEAR
DATA_INFO(A2 SC1 plateID 978 2 of 94 source b3da8412-4ec4-11e4-b1f1-0023543744f0,Sintsov,2014-10-08 12:25:46.589751,,,,,,,,)
MM(14.504,3.941)
MPA3 START
WAIT FOR MPA3
MPA3 STORE()

;; 2 of 94
MPA3 CLEAR
DATA_INFO(A3 SC1 plateID 978 3 of 94 source b3da8412-4ec4-11e4-b1f1-0023543744f0,Sintsov,2014-10-08 12:25:46.589751,,,,,,,,)
MM(23.867,3.978)
MPA3 START
WAIT FOR MPA3
MPA3 STORE()

;; 3 of 94
MPA3 CLEAR
DATA_INFO(A4 SC1 plateID 978 4 of 94 source b3da8412-4ec4-11e4-b1f1-0023543744f0,Sintsov,2014-10-08 12:25:46.589751,,,,,,,,)
MM(32.642,3.943)
MPA3 START
WAIT FOR MPA3
MPA3 STORE()

;; 4 of 94
MPA3 CLEAR
DATA_INFO(A5 SC1 plateID 978 5 of 94 source b3da8412-4ec4-11e4-b1f1-0023543744f0,Sintsov,2014-10-08 12:25:46.589751,,,,,,,,)
MM(41.680,3.940)
MPA3 START
WAIT FOR MPA3
MPA3 STORE()

;; 5 of 94
MPA3 CLEAR
DATA_INFO(A6 SC1 plateID 978 6 of 94 source b3da8412-4ec4-11e4-b1f1-0023543744f0,Sintsov,2014-10-08 12:25:46.589751,,,,,,,,)
MM(50.730,3.977)
MPA3 START
WAIT FOR MPA3
MPA3 STORE()

;; 6 of 94
MPA3 CLEAR
DATA_INFO(A7 SC1 plateID 978 7 of 94 source b3da8412-4ec4-11e4-b1f1-0023543744f0,Sintsov,2014-10-08 12:25:46.589751,,,,,,,,)
MM(59.782,4.011)
MPA3 START
WAIT FOR MPA3
MPA3 STORE()

;; 7 of 94
MPA3 CLEAR
DATA_INFO(A8 SC1 plateID 978 8 of 94 source b3da8412-4ec4-11e4-b1f1-0023543744f0,Sintsov,2014-10-08 12:25:46.589751,,,,,,,,)
MM(68.820,4.053)
MPA3 START
WAIT FOR MPA3
MPA3 STORE()

;; 8 of 94
MPA3 CLEAR
DATA_INFO(A9 SC1 plateID 978 9 of 94 source b3da8412-4ec4-11e4-b1f1-0023543744f0,Sintsov,2014-10-08 12:25:46.589751,,,,,,,,)
MM(77.648,3.857)
MPA3 START
WAIT FOR MPA3
MPA3 STORE()

;; 9 of 94
MPA3 CLEAR
DATA_INFO(A10 SC1 plateID 978 10 of 94 source b3da8412-4ec4-11e4-b1f1-0023543744f0,Sintsov,2014-10-08 12:25:46.589751,,,,,,,,)
MM(86.629,3.874)
MPA3 START
WAIT FOR MPA3
MPA3 STORE()

;; 10 of 94
MPA3 CLEAR
DATA_INFO(A11 SC1 plateID 978 11 of 94 source b3da8412-4ec4-11e4-b1f1-0023543744f0,Sintsov,2014-10-08 12:25:46.589751,,,,,,,,)
MM(95.868,3.834)
MPA3 START
WAIT FOR MPA3
MPA3 STORE()

;; 11 of 94
MPA3 CLEAR
DATA_INFO(A12 SC1 plateID 978 12 of 94 source b3da8412-4ec4-11e4-b1f1-0023543744f0,Sintsov,2014-10-08 12:25:46.589751,,,,,,,,)
MM(104.580,3.708)
MPA3 START
WAIT FOR MPA3
MPA3 STORE()

;; 12 of 94
MPA3 CLEAR
DATA_INFO(B12 SC1 plateID 978 13 of 94 source b3da8412-4ec4-11e4-b1f1-0023543744f0,Sintsov,2014-10-08 12:25:46.589751,,,,,,,,)
MM(104.545,12.832)
MPA3 START
WAIT FOR MPA3
MPA3 STORE()

;; 13 of 94
MPA3 CLEAR
DATA_INFO(B11 SC1 plateID 978 14 of 94 source b3da8412-4ec4-11e4-b1f1-0023543744f0,Sintsov,2014-10-08 12:25:46.589751,,,,,,,,)
MM(95.696,12.569)
MPA3 START
WAIT FOR MPA3
MPA3 STORE()

;; 14 of 94
MPA3 CLEAR
DATA_INFO(B10 SC1 plateID 978 15 of 94 source b3da8412-4ec4-11e4-b1f1-0023543744f0,Sintsov,2014-10-08 12:25:46.589751,,,,,,,,)
MM(86.730,12.843)
MPA3 START
WAIT FOR MPA3
MPA3 STORE()

;; 15 of 94
MPA3 CLEAR
DATA_INFO(B9 SC1 plateID 978 16 of 94 source b3da8412-4ec4-11e4-b1f1-0023543744f0,Sintsov,2014-10-08 12:25:46.589751,,,,,,,,)
MM(77.588,12.823)
MPA3 START
WAIT FOR MPA3
MPA3 STORE()

;; 16 of 94
MPA3 CLEAR
DATA_INFO(B8 SC1 plateID 978 17 of 94 source b3da8412-4ec4-11e4-b1f1-0023543744f0,Sintsov,2014-10-08 12:25:46.589751,,,,,,,,)
MM(68.753,12.871)
MPA3 START
WAIT FOR MPA3
MPA3 STORE()

;; 17 of 94
MPA3 CLEAR
DATA_INFO(B7 SC1 plateID 978 18 of 94 source b3da8412-4ec4-11e4-b1f1-0023543744f0,Sintsov,2014-10-08 12:25:46.589751,,,,,,,,)
MM(59.727,12.969)
MPA3 START
WAIT FOR MPA3
MPA3 STORE()

;; 18 of 94
MPA3 CLEAR
DATA_INFO(B6 SC1 plateID 978 19 of 94 source b3da8412-4ec4-11e4-b1f1-0023543744f0,Sintsov,2014-10-08 12:25:46.589751,,,,,,,,)
MM(50.554,12.809)
MPA3 START
WAIT FOR MPA3
MPA3 STORE()

;; 19 of 94
MPA3 CLEAR
DATA_INFO(B5 SC1 plateID 978 20 of 94 source b3da8412-4ec4-11e4-b1f1-0023543744f0,Sintsov,2014-10-08 12:25:46.589751,,,,,,,,)
MM(41.822,12.765)
MPA3 START
WAIT FOR MPA3
MPA3 STORE()

;; 20 of 94
MPA3 CLEAR
DATA_INFO(B4 SC1 plateID 978 21 of 94 source b3da8412-4ec4-11e4-b1f1-0023543744f0,Sintsov,2014-10-08 12:25:46.589751,,,,,,,,)
MM(32.752,12.740)
MPA3 START
WAIT FOR MPA3
MPA3 STORE()

;; 21 of 94
MPA3 CLEAR
DATA_INFO(B3 SC1 plateID 978 22 of 94 source b3da8412-4ec4-11e4-b1f1-0023543744f0,Sintsov,2014-10-08 12:25:46.589751,,,,,,,,)
MM(23.870,12.784)
MPA3 START
WAIT FOR MPA3
MPA3 STORE()

;; 22 of 94
MPA3 CLEAR
DATA_INFO(B2 SC1 plateID 978 23 of 94 source b3da8412-4ec4-11e4-b1f1-0023543744f0,Sintsov,2014-10-08 12:25:46.589751,,,,,,,,)
MM(14.871,13.025)
MPA3 START
WAIT FOR MPA3
MPA3 STORE()

;; 23 of 94
MPA3 CLEAR
DATA_INFO(B1 SC1 plateID 978 24 of 94 source b3da8412-4ec4-11e4-b1f1-0023543744f0,Sintsov,2014-10-08 12:25:46.589751,,,,,,,,)
MM(5.820,12.833)
MPA3 START
WAIT FOR MPA3
MPA3 STORE()

;; 24 of 94
MPA3 CLEAR
DATA_INFO(C1 SC1 plateID 978 25 of 94 source b3da8412-4ec4-11e4-b1f1-0023543744f0,Sintsov,2014-10-08 12:25:46.589751,,,,,,,,)
MM(5.868,21.861)
MPA3 START
WAIT FOR MPA3
MPA3 STORE()

;; 25 of 94
MPA3 CLEAR
DATA_INFO(C2 SC1 plateID 978 26 of 94 source b3da8412-4ec4-11e4-b1f1-0023543744f0,Sintsov,2014-10-08 12:25:46.589751,,,,,,,,)
MM(14.817,22.003)
MPA3 START
WAIT FOR MPA3
MPA3 STORE()

;; 26 of 94
MPA3 CLEAR
DATA_INFO(C3 SC1 plateID 978 27 of 94 source b3da8412-4ec4-11e4-b1f1-0023543744f0,Sintsov,2014-10-08 12:25:46.589751,,,,,,,,)
MM(23.666,21.882)
MPA3 START
WAIT FOR MPA3
MPA3 STORE()

;; 27 of 94
MPA3 CLEAR
DATA_INFO(C4 SC1 plateID 978 28 of 94 source b3da8412-4ec4-11e4-b1f1-0023543744f0,Sintsov,2014-10-08 12:25:46.589751,,,,,,,,)
MM(32.574,21.846)
MPA3 START
WAIT FOR MPA3
MPA3 STORE()

;; 28 of 94
MPA3 CLEAR
DATA_INFO(C5 SC1 plateID 978 29 of 94 source b3da8412-4ec4-11e4-b1f1-0023543744f0,Sintsov,2014-10-08 12:25:46.589751,,,,,,,,)
MM(41.744,21.877)
MPA3 START
WAIT FOR MPA3
MPA3 STORE()

;; 29 of 94
MPA3 CLEAR
DATA_INFO(C6 SC1 plateID 978 30 of 94 source b3da8412-4ec4-11e4-b1f1-0023543744f0,Sintsov,2014-10-08 12:25:46.589751,,,,,,,,)
MM(50.665,21.922)
MPA3 START
WAIT FOR MPA3
MPA3 STORE()

;; 30 of 94
MPA3 CLEAR
DATA_INFO(C7 SC1 plateID 978 31 of 94 source b3da8412-4ec4-11e4-b1f1-0023543744f0,Sintsov,2014-10-08 12:25:46.589751,,,,,,,,)
MM(59.589,21.847)
MPA3 START
WAIT FOR MPA3
MPA3 STORE()

;; 31 of 94
MPA3 CLEAR
DATA_INFO(C8 SC1 plateID 978 32 of 94 source b3da8412-4ec4-11e4-b1f1-0023543744f0,Sintsov,2014-10-08 12:25:46.589751,,,,,,,,)
MM(68.860,21.989)
MPA3 START
WAIT FOR MPA3
MPA3 STORE()

;; 32 of 94
MPA3 CLEAR
DATA_INFO(C9 SC1 plateID 978 33 of 94 source b3da8412-4ec4-11e4-b1f1-0023543744f0,Sintsov,2014-10-08 12:25:46.589751,,,,,,,,)
MM(77.689,21.823)
MPA3 START
WAIT FOR MPA3
MPA3 STORE()

;; 33 of 94
MPA3 CLEAR
DATA_INFO(C10 SC1 plateID 978 34 of 94 source b3da8412-4ec4-11e4-b1f1-0023543744f0,Sintsov,2014-10-08 12:25:46.589751,,,,,,,,)
MM(86.959,21.907)
MPA3 START
WAIT FOR MPA3
MPA3 STORE()

;; 34 of 94
MPA3 CLEAR
DATA_INFO(C11 SC1 plateID 978 35 of 94 source b3da8412-4ec4-11e4-b1f1-0023543744f0,Sintsov,2014-10-08 12:25:46.589751,,,,,,,,)
MM(95.843,21.820)
MPA3 START
WAIT FOR MPA3
MPA3 STORE()

;; 35 of 94
MPA3 CLEAR
DATA_INFO(C12 SC1 plateID 978 36 of 94 source b3da8412-4ec4-11e4-b1f1-0023543744f0,Sintsov,2014-10-08 12:25:46.589751,,,,,,,,)
MM(104.590,22.015)
MPA3 START
WAIT FOR MPA3
MPA3 STORE()

;; 36 of 94
MPA3 CLEAR
DATA_INFO(D11 SC1 plateID 978 37 of 94 source b3da8412-4ec4-11e4-b1f1-0023543744f0,Sintsov,2014-10-08 12:25:46.589751,,,,,,,,)
MM(95.553,30.845)
MPA3 START
WAIT FOR MPA3
MPA3 STORE()

;; 37 of 94
MPA3 CLEAR
DATA_INFO(D10 SC1 plateID 978 38 of 94 source b3da8412-4ec4-11e4-b1f1-0023543744f0,Sintsov,2014-10-08 12:25:46.589751,,,,,,,,)
MM(86.968,30.819)
MPA3 START
WAIT FOR MPA3
MPA3 STORE()

;; 38 of 94
MPA3 CLEAR
DATA_INFO(D9 SC1 plateID 978 39 of 94 source b3da8412-4ec4-11e4-b1f1-0023543744f0,Sintsov,2014-10-08 12:25:46.589751,,,,,,,,)
MM(77.700,30.987)
MPA3 START
WAIT FOR MPA3
MPA3 STORE()

;; 39 of 94
MPA3 CLEAR
DATA_INFO(D8 SC1 plateID 978 40 of 94 source b3da8412-4ec4-11e4-b1f1-0023543744f0,Sintsov,2014-10-08 12:25:46.589751,,,,,,,,)
MM(68.868,30.858)
MPA3 START
WAIT FOR MPA3
MPA3 STORE()

;; 40 of 94
MPA3 CLEAR
DATA_INFO(D7 SC1 plateID 978 41 of 94 source b3da8412-4ec4-11e4-b1f1-0023543744f0,Sintsov,2014-10-08 12:25:46.589751,,,,,,,,)
MM(59.726,31.104)
MPA3 START
WAIT FOR MPA3
MPA3 STORE()

;; 41 of 94
MPA3 CLEAR
DATA_INFO(D6 SC1 plateID 978 42 of 94 source b3da8412-4ec4-11e4-b1f1-0023543744f0,Sintsov,2014-10-08 12:25:46.589751,,,,,,,,)
MM(50.679,30.878)
MPA3 START
WAIT FOR MPA3
MPA3 STORE()

;; 42 of 94
MPA3 CLEAR
DATA_INFO(D5 SC1 plateID 978 43 of 94 source b3da8412-4ec4-11e4-b1f1-0023543744f0,Sintsov,2014-10-08 12:25:46.589751,,,,,,,,)
MM(41.838,31.006)
MPA3 START
WAIT FOR MPA3
MPA3 STORE()

;; 43 of 94
MPA3 CLEAR
DATA_INFO(D4 SC1 plateID 978 44 of 94 source b3da8412-4ec4-11e4-b1f1-0023543744f0,Sintsov,2014-10-08 12:25:46.589751,,,,,,,,)
MM(32.726,30.851)
MPA3 START
WAIT FOR MPA3
MPA3 STORE()

;; 44 of 94
MPA3 CLEAR
DATA_INFO(D3 SC1 plateID 978 45 of 94 source b3da8412-4ec4-11e4-b1f1-0023543744f0,Sintsov,2014-10-08 12:25:46.589751,,,,,,,,)
MM(23.586,30.905)
MPA3 START
WAIT FOR MPA3
MPA3 STORE()

;; 45 of 94
MPA3 CLEAR
DATA_INFO(D2 SC1 plateID 978 46 of 94 source b3da8412-4ec4-11e4-b1f1-0023543744f0,Sintsov,2014-10-08 12:25:46.589751,,,,,,,,)
MM(14.802,31.018)
MPA3 START
WAIT FOR MPA3
MPA3 STORE()

;; 46 of 94
MPA3 CLEAR
DATA_INFO(D1 SC1 plateID 978 47 of 94 source b3da8412-4ec4-11e4-b1f1-0023543744f0,Sintsov,2014-10-08 12:25:46.589751,,,,,,,,)
MM(5.708,31.090)
MPA3 START
WAIT FOR MPA3
MPA3 STORE()

;; 47 of 94
MPA3 CLEAR
DATA_INFO(E1 SC1 plateID 978 48 of 94 source b3da8412-4ec4-11e4-b1f1-0023543744f0,Sintsov,2014-10-08 12:25:46.589751,,,,,,,,)
MM(5.906,40.045)
MPA3 START
WAIT FOR MPA3
MPA3 STORE()

;; 48 of 94
MPA3 CLEAR
DATA_INFO(E2 SC1 plateID 978 49 of 94 source b3da8412-4ec4-11e4-b1f1-0023543744f0,Sintsov,2014-10-08 12:25:46.589751,,,,,,,,)
MM(14.724,39.968)
MPA3 START
WAIT FOR MPA3
MPA3 STORE()

;; 49 of 94
MPA3 CLEAR
DATA_INFO(E3 SC1 plateID 978 50 of 94 source b3da8412-4ec4-11e4-b1f1-0023543744f0,Sintsov,2014-10-08 12:25:46.589751,,,,,,,,)
MM(23.626,39.990)
MPA3 START
WAIT FOR MPA3
MPA3 STORE()

;; 50 of 94
MPA3 CLEAR
DATA_INFO(E4 SC1 plateID 978 51 of 94 source b3da8412-4ec4-11e4-b1f1-0023543744f0,Sintsov,2014-10-08 12:25:46.589751,,,,,,,,)
MM(32.735,39.879)
MPA3 START
WAIT FOR MPA3
MPA3 STORE()

;; 51 of 94
MPA3 CLEAR
DATA_INFO(E5 SC1 plateID 978 52 of 94 source b3da8412-4ec4-11e4-b1f1-0023543744f0,Sintsov,2014-10-08 12:25:46.589751,,,,,,,,)
MM(41.754,39.863)
MPA3 START
WAIT FOR MPA3
MPA3 STORE()

;; 52 of 94
MPA3 CLEAR
DATA_INFO(E6 SC1 plateID 978 53 of 94 source b3da8412-4ec4-11e4-b1f1-0023543744f0,Sintsov,2014-10-08 12:25:46.589751,,,,,,,,)
MM(50.629,39.842)
MPA3 START
WAIT FOR MPA3
MPA3 STORE()

;; 53 of 94
MPA3 CLEAR
DATA_INFO(E7 SC1 plateID 978 54 of 94 source b3da8412-4ec4-11e4-b1f1-0023543744f0,Sintsov,2014-10-08 12:25:46.589751,,,,,,,,)
MM(59.650,40.093)
MPA3 START
WAIT FOR MPA3
MPA3 STORE()

;; 54 of 94
MPA3 CLEAR
DATA_INFO(E8 SC1 plateID 978 55 of 94 source b3da8412-4ec4-11e4-b1f1-0023543744f0,Sintsov,2014-10-08 12:25:46.589751,,,,,,,,)
MM(68.684,40.070)
MPA3 START
WAIT FOR MPA3
MPA3 STORE()

;; 55 of 94
MPA3 CLEAR
DATA_INFO(E9 SC1 plateID 978 56 of 94 source b3da8412-4ec4-11e4-b1f1-0023543744f0,Sintsov,2014-10-08 12:25:46.589751,,,,,,,,)
MM(77.706,39.887)
MPA3 START
WAIT FOR MPA3
MPA3 STORE()

;; 56 of 94
MPA3 CLEAR
DATA_INFO(E10 SC1 plateID 978 57 of 94 source b3da8412-4ec4-11e4-b1f1-0023543744f0,Sintsov,2014-10-08 12:25:46.589751,,,,,,,,)
MM(86.522,39.922)
MPA3 START
WAIT FOR MPA3
MPA3 STORE()

;; 57 of 94
MPA3 CLEAR
DATA_INFO(E11 SC1 plateID 978 58 of 94 source b3da8412-4ec4-11e4-b1f1-0023543744f0,Sintsov,2014-10-08 12:25:46.589751,,,,,,,,)
MM(95.567,39.861)
MPA3 START
WAIT FOR MPA3
MPA3 STORE()

;; 58 of 94
MPA3 CLEAR
DATA_INFO(E12 SC1 plateID 978 59 of 94 source b3da8412-4ec4-11e4-b1f1-0023543744f0,Sintsov,2014-10-08 12:25:46.589751,,,,,,,,)
MM(104.528,39.966)
MPA3 START
WAIT FOR MPA3
MPA3 STORE()

;; 59 of 94
MPA3 CLEAR
DATA_INFO(F12 SC1 plateID 978 60 of 94 source b3da8412-4ec4-11e4-b1f1-0023543744f0,Sintsov,2014-10-08 12:25:46.589751,,,,,,,,)
MM(104.487,48.967)
MPA3 START
WAIT FOR MPA3
MPA3 STORE()

;; 60 of 94
MPA3 CLEAR
DATA_INFO(F11 SC1 plateID 978 61 of 94 source b3da8412-4ec4-11e4-b1f1-0023543744f0,Sintsov,2014-10-08 12:25:46.589751,,,,,,,,)
MM(95.468,48.845)
MPA3 START
WAIT FOR MPA3
MPA3 STORE()

;; 61 of 94
MPA3 CLEAR
DATA_INFO(F10 SC1 plateID 978 62 of 94 source b3da8412-4ec4-11e4-b1f1-0023543744f0,Sintsov,2014-10-08 12:25:46.589751,,,,,,,,)
MM(86.669,48.909)
MPA3 START
WAIT FOR MPA3
MPA3 STORE()

;; 62 of 94
MPA3 CLEAR
DATA_INFO(F9 SC1 plateID 978 63 of 94 source b3da8412-4ec4-11e4-b1f1-0023543744f0,Sintsov,2014-10-08 12:25:46.589751,,,,,,,,)
MM(77.617,48.887)
MPA3 START
WAIT FOR MPA3
MPA3 STORE()

;; 63 of 94
MPA3 CLEAR
DATA_INFO(F8 SC1 plateID 978 64 of 94 source b3da8412-4ec4-11e4-b1f1-0023543744f0,Sintsov,2014-10-08 12:25:46.589751,,,,,,,,)
MM(68.639,48.897)
MPA3 START
WAIT FOR MPA3
MPA3 STORE()

;; 64 of 94
MPA3 CLEAR
DATA_INFO(F7 SC1 plateID 978 65 of 94 source b3da8412-4ec4-11e4-b1f1-0023543744f0,Sintsov,2014-10-08 12:25:46.589751,,,,,,,,)
MM(59.680,48.926)
MPA3 START
WAIT FOR MPA3
MPA3 STORE()

;; 65 of 94
MPA3 CLEAR
DATA_INFO(F6 SC1 plateID 978 66 of 94 source b3da8412-4ec4-11e4-b1f1-0023543744f0,Sintsov,2014-10-08 12:25:46.589751,,,,,,,,)
MM(50.947,48.814)
MPA3 START
WAIT FOR MPA3
MPA3 STORE()

;; 66 of 94
MPA3 CLEAR
DATA_INFO(F4 SC1 plateID 978 67 of 94 source b3da8412-4ec4-11e4-b1f1-0023543744f0,Sintsov,2014-10-08 12:25:46.589751,,,,,,,,)
MM(32.801,48.857)
MPA3 START
WAIT FOR MPA3
MPA3 STORE()

;; 67 of 94
MPA3 CLEAR
DATA_INFO(F3 SC1 plateID 978 68 of 94 source b3da8412-4ec4-11e4-b1f1-0023543744f0,Sintsov,2014-10-08 12:25:46.589751,,,,,,,,)
MM(23.690,48.910)
MPA3 START
WAIT FOR MPA3
MPA3 STORE()

;; 68 of 94
MPA3 CLEAR
DATA_INFO(F2 SC1 plateID 978 69 of 94 source b3da8412-4ec4-11e4-b1f1-0023543744f0,Sintsov,2014-10-08 12:25:46.589751,,,,,,,,)
MM(14.812,48.945)
MPA3 START
WAIT FOR MPA3
MPA3 STORE()

;; 69 of 94
MPA3 CLEAR
DATA_INFO(F1 SC1 plateID 978 70 of 94 source b3da8412-4ec4-11e4-b1f1-0023543744f0,Sintsov,2014-10-08 12:25:46.589751,,,,,,,,)
MM(5.941,49.171)
MPA3 START
WAIT FOR MPA3
MPA3 STORE()

;; 70 of 94
MPA3 CLEAR
DATA_INFO(G1 SC1 plateID 978 71 of 94 source b3da8412-4ec4-11e4-b1f1-0023543744f0,Sintsov,2014-10-08 12:25:46.589751,,,,,,,,)
MM(5.719,58.298)
MPA3 START
WAIT FOR MPA3
MPA3 STORE()

;; 71 of 94
MPA3 CLEAR
DATA_INFO(G2 SC1 plateID 978 72 of 94 source b3da8412-4ec4-11e4-b1f1-0023543744f0,Sintsov,2014-10-08 12:25:46.589751,,,,,,,,)
MM(15.528,58.256)
MPA3 START
WAIT FOR MPA3
MPA3 STORE()

;; 72 of 94
MPA3 CLEAR
DATA_INFO(G3 SC1 plateID 978 73 of 94 source b3da8412-4ec4-11e4-b1f1-0023543744f0,Sintsov,2014-10-08 12:25:46.589751,,,,,,,,)
MM(23.747,57.805)
MPA3 START
WAIT FOR MPA3
MPA3 STORE()

;; 73 of 94
MPA3 CLEAR
DATA_INFO(G4 SC1 plateID 978 74 of 94 source b3da8412-4ec4-11e4-b1f1-0023543744f0,Sintsov,2014-10-08 12:25:46.589751,,,,,,,,)
MM(32.849,57.993)
MPA3 START
WAIT FOR MPA3
MPA3 STORE()

;; 74 of 94
MPA3 CLEAR
DATA_INFO(G5 SC1 plateID 978 75 of 94 source b3da8412-4ec4-11e4-b1f1-0023543744f0,Sintsov,2014-10-08 12:25:46.589751,,,,,,,,)
MM(41.725,58.006)
MPA3 START
WAIT FOR MPA3
MPA3 STORE()

;; 75 of 94
MPA3 CLEAR
DATA_INFO(G6 SC1 plateID 978 76 of 94 source b3da8412-4ec4-11e4-b1f1-0023543744f0,Sintsov,2014-10-08 12:25:46.589751,,,,,,,,)
MM(50.611,57.927)
MPA3 START
WAIT FOR MPA3
MPA3 STORE()

;; 76 of 94
MPA3 CLEAR
DATA_INFO(G7 SC1 plateID 978 77 of 94 source b3da8412-4ec4-11e4-b1f1-0023543744f0,Sintsov,2014-10-08 12:25:46.589751,,,,,,,,)
MM(59.524,57.910)
MPA3 START
WAIT FOR MPA3
MPA3 STORE()

;; 77 of 94
MPA3 CLEAR
DATA_INFO(G8 SC1 plateID 978 78 of 94 source b3da8412-4ec4-11e4-b1f1-0023543744f0,Sintsov,2014-10-08 12:25:46.589751,,,,,,,,)
MM(68.574,58.043)
MPA3 START
WAIT FOR MPA3
MPA3 STORE()

;; 78 of 94
MPA3 CLEAR
DATA_INFO(G9 SC1 plateID 978 79 of 94 source b3da8412-4ec4-11e4-b1f1-0023543744f0,Sintsov,2014-10-08 12:25:46.589751,,,,,,,,)
MM(77.603,57.828)
MPA3 START
WAIT FOR MPA3
MPA3 STORE()

;; 79 of 94
MPA3 CLEAR
DATA_INFO(G10 SC1 plateID 978 80 of 94 source b3da8412-4ec4-11e4-b1f1-0023543744f0,Sintsov,2014-10-08 12:25:46.589751,,,,,,,,)
MM(86.715,57.739)
MPA3 START
WAIT FOR MPA3
MPA3 STORE()

;; 80 of 94
MPA3 CLEAR
DATA_INFO(G11 SC1 plateID 978 81 of 94 source b3da8412-4ec4-11e4-b1f1-0023543744f0,Sintsov,2014-10-08 12:25:46.589751,,,,,,,,)
MM(95.677,57.701)
MPA3 START
WAIT FOR MPA3
MPA3 STORE()

;; 81 of 94
MPA3 CLEAR
DATA_INFO(G12 SC1 plateID 978 82 of 94 source b3da8412-4ec4-11e4-b1f1-0023543744f0,Sintsov,2014-10-08 12:25:46.589751,,,,,,,,)
MM(104.350,57.905)
MPA3 START
WAIT FOR MPA3
MPA3 STORE()

;; 82 of 94
MPA3 CLEAR
DATA_INFO(H12 SC1 plateID 978 83 of 94 source b3da8412-4ec4-11e4-b1f1-0023543744f0,Sintsov,2014-10-08 12:25:46.589751,,,,,,,,)
MM(104.672,66.911)
MPA3 START
WAIT FOR MPA3
MPA3 STORE()

;; 83 of 94
MPA3 CLEAR
DATA_INFO(H11 SC1 plateID 978 84 of 94 source b3da8412-4ec4-11e4-b1f1-0023543744f0,Sintsov,2014-10-08 12:25:46.589751,,,,,,,,)
MM(95.518,66.868)
MPA3 START
WAIT FOR MPA3
MPA3 STORE()

;; 84 of 94
MPA3 CLEAR
DATA_INFO(H10 SC1 plateID 978 85 of 94 source b3da8412-4ec4-11e4-b1f1-0023543744f0,Sintsov,2014-10-08 12:25:46.589751,,,,,,,,)
MM(86.627,66.867)
MPA3 START
WAIT FOR MPA3
MPA3 STORE()

;; 85 of 94
MPA3 CLEAR
DATA_INFO(H9 SC1 plateID 978 86 of 94 source b3da8412-4ec4-11e4-b1f1-0023543744f0,Sintsov,2014-10-08 12:25:46.589751,,,,,,,,)
MM(77.816,66.857)
MPA3 START
WAIT FOR MPA3
MPA3 STORE()

;; 86 of 94
MPA3 CLEAR
DATA_INFO(H8 SC1 plateID 978 87 of 94 source b3da8412-4ec4-11e4-b1f1-0023543744f0,Sintsov,2014-10-08 12:25:46.589751,,,,,,,,)
MM(68.478,66.925)
MPA3 START
WAIT FOR MPA3
MPA3 STORE()

;; 87 of 94
MPA3 CLEAR
DATA_INFO(H7 SC1 plateID 978 88 of 94 source b3da8412-4ec4-11e4-b1f1-0023543744f0,Sintsov,2014-10-08 12:25:46.589751,,,,,,,,)
MM(59.639,66.909)
MPA3 START
WAIT FOR MPA3
MPA3 STORE()

;; 88 of 94
MPA3 CLEAR
DATA_INFO(H6 SC1 plateID 978 89 of 94 source b3da8412-4ec4-11e4-b1f1-0023543744f0,Sintsov,2014-10-08 12:25:46.589751,,,,,,,,)
MM(50.645,66.966)
MPA3 START
WAIT FOR MPA3
MPA3 STORE()

;; 89 of 94
MPA3 CLEAR
DATA_INFO(H5 SC1 plateID 978 90 of 94 source b3da8412-4ec4-11e4-b1f1-0023543744f0,Sintsov,2014-10-08 12:25:46.589751,,,,,,,,)
MM(41.639,66.873)
MPA3 START
WAIT FOR MPA3
MPA3 STORE()

;; 90 of 94
MPA3 CLEAR
DATA_INFO(H4 SC1 plateID 978 91 of 94 source b3da8412-4ec4-11e4-b1f1-0023543744f0,Sintsov,2014-10-08 12:25:46.589751,,,,,,,,)
MM(32.777,67.081)
MPA3 START
WAIT FOR MPA3
MPA3 STORE()

;; 91 of 94
MPA3 CLEAR
DATA_INFO(H3 SC1 plateID 978 92 of 94 source b3da8412-4ec4-11e4-b1f1-0023543744f0,Sintsov,2014-10-08 12:25:46.589751,,,,,,,,)
MM(23.608,66.851)
MPA3 START
WAIT FOR MPA3
MPA3 STORE()

;; 92 of 94
MPA3 CLEAR
DATA_INFO(H2 SC1 plateID 978 93 of 94 source b3da8412-4ec4-11e4-b1f1-0023543744f0,Sintsov,2014-10-08 12:25:46.589751,,,,,,,,)
MM(14.706,66.903)
MPA3 START
WAIT FOR MPA3
MPA3 STORE()

;; 93 of 94
MPA3 CLEAR
DATA_INFO(H1 SC1 plateID 978 94 of 94 source b3da8412-4ec4-11e4-b1f1-0023543744f0,Sintsov,2014-10-08 12:25:46.589751,,,,,,,,)
MM(5.909,67.166)
MPA3 START
WAIT FOR MPA3
MPA3 STORE()

SCRIPT END