;; SCRIPT UUID = edd78860-5ab6-11e4-81bf-0023543744f0
;; ESTIMATED RUNTIME = 0:25:04
SCRIPT START
REALTIME(60)
LIVETIME(62)

;; 1 of 20
MPA3 CLEAR
DATA_INFO(2014_10_23 OG-salt PCR coordinates - Sheet5 (1) 6-6 SC1 SOURCE edd78860-5ab6-11e4-81bf-0023543744f0,SINTSOV,,,,,,,,,)
MM(12.4,4.0)
MPA3 START
WAIT FOR MPA3
MPA3 STORE()

;; 2 of 20
MPA3 CLEAR
DATA_INFO(2014_10_23 OG-salt PCR coordinates - Sheet5 (1) 6-6 SC1 SOURCE edd78860-5ab6-11e4-81bf-0023543744f0,SINTSOV,,,,,,,,,)
MM(12.4,3.5)
MPA3 START
WAIT FOR MPA3
MPA3 STORE()

;; 3 of 20
MPA3 CLEAR
DATA_INFO(2014_10_23 OG-salt PCR coordinates - Sheet5 (1) 6-6 SC1 SOURCE edd78860-5ab6-11e4-81bf-0023543744f0,SINTSOV,,,,,,,,,)
MM(12.4,3.0)
MPA3 START
WAIT FOR MPA3
MPA3 STORE()

;; 4 of 20
MPA3 CLEAR
DATA_INFO(2014_10_23 OG-salt PCR coordinates - Sheet5 (1) 6-6 SC1 SOURCE edd78860-5ab6-11e4-81bf-0023543744f0,SINTSOV,,,,,,,,,)
MM(12.4,2.5)
MPA3 START
WAIT FOR MPA3
MPA3 STORE()

;; 5 of 20
MPA3 CLEAR
DATA_INFO(2014_10_23 OG-salt PCR coordinates - Sheet5 (1) 6-6 SC1 SOURCE edd78860-5ab6-11e4-81bf-0023543744f0,SINTSOV,,,,,,,,,)
MM(12.4,2.0)
MPA3 START
WAIT FOR MPA3
MPA3 STORE()

;; 6 of 20
MPA3 CLEAR
DATA_INFO(2014_10_23 OG-salt PCR coordinates - Sheet5 (1) 6-7 SC1 SOURCE edd78860-5ab6-11e4-81bf-0023543744f0,SINTSOV,,,,,,,,,)
MM(23.4,4.0)
MPA3 START
WAIT FOR MPA3
MPA3 STORE()

;; 7 of 20
MPA3 CLEAR
DATA_INFO(2014_10_23 OG-salt PCR coordinates - Sheet5 (1) 6-7 SC1 SOURCE edd78860-5ab6-11e4-81bf-0023543744f0,SINTSOV,,,,,,,,,)
MM(23.4,3.5)
MPA3 START
WAIT FOR MPA3
MPA3 STORE()

;; 8 of 20
MPA3 CLEAR
DATA_INFO(2014_10_23 OG-salt PCR coordinates - Sheet5 (1) 6-7 SC1 SOURCE edd78860-5ab6-11e4-81bf-0023543744f0,SINTSOV,,,,,,,,,)
MM(23.4,3.0)
MPA3 START
WAIT FOR MPA3
MPA3 STORE()

;; 9 of 20
MPA3 CLEAR
DATA_INFO(2014_10_23 OG-salt PCR coordinates - Sheet5 (1) 6-7 SC1 SOURCE edd78860-5ab6-11e4-81bf-0023543744f0,SINTSOV,,,,,,,,,)
MM(23.4,2.5)
MPA3 START
WAIT FOR MPA3
MPA3 STORE()

;; 10 of 20
MPA3 CLEAR
DATA_INFO(2014_10_23 OG-salt PCR coordinates - Sheet5 (1) 6-7 SC1 SOURCE edd78860-5ab6-11e4-81bf-0023543744f0,SINTSOV,,,,,,,,,)
MM(23.4,2.0)
MPA3 START
WAIT FOR MPA3
MPA3 STORE()

;; 11 of 20
MPA3 CLEAR
DATA_INFO(2014_10_23 OG-salt PCR coordinates - Sheet5 (1) 3-3 SC1 SOURCE edd78860-5ab6-11e4-81bf-0023543744f0,SINTSOV,,,,,,,,,)
MM(34.4,4.0)
MPA3 START
WAIT FOR MPA3
MPA3 STORE()

;; 12 of 20
MPA3 CLEAR
DATA_INFO(2014_10_23 OG-salt PCR coordinates - Sheet5 (1) 3-3 SC1 SOURCE edd78860-5ab6-11e4-81bf-0023543744f0,SINTSOV,,,,,,,,,)
MM(34.4,3.5)
MPA3 START
WAIT FOR MPA3
MPA3 STORE()

;; 13 of 20
MPA3 CLEAR
DATA_INFO(2014_10_23 OG-salt PCR coordinates - Sheet5 (1) 3-3 SC1 SOURCE edd78860-5ab6-11e4-81bf-0023543744f0,SINTSOV,,,,,,,,,)
MM(34.4,3.0)
MPA3 START
WAIT FOR MPA3
MPA3 STORE()

;; 14 of 20
MPA3 CLEAR
DATA_INFO(2014_10_23 OG-salt PCR coordinates - Sheet5 (1) 3-3 SC1 SOURCE edd78860-5ab6-11e4-81bf-0023543744f0,SINTSOV,,,,,,,,,)
MM(34.4,2.5)
MPA3 START
WAIT FOR MPA3
MPA3 STORE()

;; 15 of 20
MPA3 CLEAR
DATA_INFO(2014_10_23 OG-salt PCR coordinates - Sheet5 (1) 3-3 SC1 SOURCE edd78860-5ab6-11e4-81bf-0023543744f0,SINTSOV,,,,,,,,,)
MM(34.4,2.0)
MPA3 START
WAIT FOR MPA3
MPA3 STORE()

;; 16 of 20
MPA3 CLEAR
DATA_INFO(2014_10_23 OG-salt PCR coordinates - Sheet5 (1) 3-4 SC1 SOURCE edd78860-5ab6-11e4-81bf-0023543744f0,SINTSOV,,,,,,,,,)
MM(45.4,4.0)
MPA3 START
WAIT FOR MPA3
MPA3 STORE()

;; 17 of 20
MPA3 CLEAR
DATA_INFO(2014_10_23 OG-salt PCR coordinates - Sheet5 (1) 3-4 SC1 SOURCE edd78860-5ab6-11e4-81bf-0023543744f0,SINTSOV,,,,,,,,,)
MM(45.4,3.5)
MPA3 START
WAIT FOR MPA3
MPA3 STORE()

;; 18 of 20
MPA3 CLEAR
DATA_INFO(2014_10_23 OG-salt PCR coordinates - Sheet5 (1) 3-4 SC1 SOURCE edd78860-5ab6-11e4-81bf-0023543744f0,SINTSOV,,,,,,,,,)
MM(45.4,3.0)
MPA3 START
WAIT FOR MPA3
MPA3 STORE()

;; 19 of 20
MPA3 CLEAR
DATA_INFO(2014_10_23 OG-salt PCR coordinates - Sheet5 (1) 3-4 SC1 SOURCE edd78860-5ab6-11e4-81bf-0023543744f0,SINTSOV,,,,,,,,,)
MM(45.4,2.5)
MPA3 START
WAIT FOR MPA3
MPA3 STORE()

;; 20 of 20
MPA3 CLEAR
DATA_INFO(2014_10_23 OG-salt PCR coordinates - Sheet5 (1) 3-4 SC1 SOURCE edd78860-5ab6-11e4-81bf-0023543744f0,SINTSOV,,,,,,,,,)
MM(45.4,2.0)
MPA3 START
WAIT FOR MPA3
MPA3 STORE()

SCRIPT END