0.020167,1.3336
0.020501,1.0796
0.020835,1.1202
0.021169,0.93977
0.021503,0.99575
0.021836,0.99976
0.02217,1.0216
0.022504,0.78942
0.022838,0.97265
0.023172,0.9059
0.023506,0.71809
0.02384,0.86987
0.024174,0.61061
0.024508,0.98482
0.024841,0.80623
0.025175,0.76879
0.025509,0.95822
0.025843,0.89821
0.026177,0.72784
0.026511,0.74682
0.026845,0.64711
0.027179,0.74494
0.027513,0.68238
0.027846,0.72498
0.02818,0.97298
0.028514,0.77225
0.028848,0.61307
0.029182,0.76931
0.029516,0.74873
0.02985,0.75716
0.030184,0.65214
0.030518,0.8479
0.030851,0.78869
0.031185,0.71307
0.031519,0.80253
0.031853,0.6819
0.032187,0.73836
0.032521,0.80479
0.032855,0.77932
0.033189,0.91387
0.033523,0.72525
0.033856,0.76787
0.03419,0.85767
0.034524,0.74998
0.034858,0.8647
0.035192,0.83395
0.035526,0.83909
0.03586,0.79608
0.036194,0.74246
0.036528,0.71647
0.036861,0.96231
0.037195,0.71814
0.037529,0.95497
0.037863,0.95736
0.038197,0.78619
0.038531,0.93023
0.038865,0.95845
0.039199,1.0209
0.039533,0.94343
0.039866,0.82157
0.0402,0.96648
0.040534,0.86482
0.040868,0.88646
0.041202,0.96249
0.041536,0.83359
0.04187,1.024
0.042204,0.85582
0.042538,0.94281
0.042871,0.94575
0.043205,0.89526
0.043539,0.91288
0.043873,0.91556
0.044207,1.0125
0.044541,0.93364
0.044875,1.0197
0.045209,0.96719
0.045543,0.9224
0.045876,0.92763
0.04621,1.0879
0.046544,0.96565
0.046878,1.1104
0.047212,1.0948
0.047546,0.87457
0.04788,1.0693
0.048214,0.98509
0.048548,1.0064
0.048881,1.0611
0.049215,0.82616
0.049549,1.0181
0.049883,0.94924
0.050217,1.0442
0.050551,1.0599
0.050885,0.92844
0.051219,0.98831
0.051553,1.1194
0.051886,0.83053
0.05222,1.0523
0.052554,0.98834
0.052888,0.96169
0.053222,1.0623
0.053556,0.81667
0.05389,1.0979
0.054224,0.97432
0.054558,0.91913
0.054891,0.97184
0.055225,0.84974
0.055559,0.95241
0.055893,0.87552
0.056227,0.81641
0.056561,1.0098
0.056895,0.87087
0.057229,1.0401
0.057563,0.87668
0.057896,0.8476
0.05823,0.92261
0.058564,0.92229
0.058898,0.93597
0.059232,0.82404
0.059566,0.74241
0.0599,0.85703
0.060234,0.83795
0.060568,0.87269
0.060902,0.78207
0.061235,0.69367
0.061569,0.84506
0.061903,0.87662
0.062237,0.8413
0.062571,0.71736
0.062905,0.76851
0.063239,0.84266
0.063573,0.76042
0.063907,0.72726
0.06424,0.669
0.064574,0.63359
0.064908,0.79396
0.065242,0.57497
0.065576,0.72283
0.06591,0.6578
0.066244,0.65428
0.066578,0.61019
0.066912,0.721
0.067245,0.61989
0.067579,0.57199
0.067913,0.70609
0.068247,0.57744
0.068581,0.62258
0.068915,0.55569
0.069249,0.58679
0.069583,0.58042
0.069917,0.51226
0.07025,0.55369
0.070584,0.44842
0.070918,0.52933
0.071252,0.49345
0.071586,0.51421
0.07192,0.48694
0.072254,0.44035
0.072588,0.43731
0.072922,0.43463
0.073255,0.41786
0.073589,0.4879
0.073923,0.44053
0.074257,0.3436
0.074591,0.37145
0.074925,0.42088
0.075259,0.38915
0.075593,0.3975
0.075927,0.34695
0.07626,0.36197
0.076594,0.39901
0.076928,0.37427
0.077262,0.40249
0.077596,0.31133
0.07793,0.35643
0.078264,0.34896
0.078598,0.31019
0.078932,0.31409
0.079265,0.29388
0.079599,0.31406
0.079933,0.32965
0.080267,0.29956
0.080601,0.29178
0.080935,0.27871
0.081269,0.3367
0.081603,0.29837
0.081937,0.26545
0.08227,0.29939
0.082604,0.25489
0.082938,0.21958
0.083272,0.20928
0.083606,0.21692
0.08394,0.2362
0.084274,0.19948
0.084608,0.22016
0.084942,0.24486
0.085275,0.2539
0.085609,0.19972
0.085943,0.1856
0.086277,0.22368
0.086611,0.21487
0.086945,0.19601
0.087279,0.18957
0.087613,0.21626
0.087947,0.20622
0.08828,0.25008
0.088614,0.19603
0.088948,0.18954
0.089282,0.16285
0.089616,0.2043
0.08995,0.16106
0.090284,0.17461
0.090618,0.18206
0.090952,0.18484
0.091285,0.18858
0.091619,0.1767
0.091953,0.21812
0.092287,0.18015
0.092621,0.13999
0.092955,0.14869
0.093289,0.15834
0.093623,0.19221
0.093957,0.18827
0.09429,0.14859
0.094624,0.17295
0.094958,0.1004
0.095292,0.13759
0.095626,0.13366
0.09596,0.15594
0.096294,0.19755
0.096628,0.15594
0.096962,0.20761
0.097295,0.15914
0.097629,0.18282
0.097963,0.1573
0.098297,0.15343
0.098631,0.13291
0.098965,0.14035
0.099299,0.18501
0.099633,0.15002
0.099967,0.15035
0.1003,0.15832
0.10063,0.13518
0.10097,0.15881
0.1013,0.12578
0.10164,0.1237
0.10197,0.11294
0.1023,0.12199
0.10264,0.11548
0.10297,0.13366
0.10331,0.08698
0.10364,0.1287
0.10397,0.12627
0.10431,0.12475
0.10464,0.11273
0.10497,0.12188
0.10531,0.15764
0.10564,0.1387
0.10598,0.1152
0.10631,0.11618
0.10664,0.12821
0.10698,0.15302
0.10731,0.12637
0.10765,0.12574
0.10798,0.12787
0.10831,0.15957
0.10865,0.11604
0.10898,0.12105
0.10932,0.11079
0.10965,0.11483
0.10998,0.12333
0.11032,0.092236
0.11065,0.1205
0.11098,0.13073
0.11132,0.14286
0.11165,0.10633
0.11199,0.14142
0.11232,0.12429
0.11265,0.10856
0.11299,0.10641
0.11332,0.088894
0.11366,0.1276
0.11399,0.13351
0.11432,0.11725
0.11466,0.11279
0.11499,0.10955
0.11533,0.16506
0.11566,0.11921
0.11599,0.12461
0.11633,0.12492
0.11666,0.12254
0.11699,0.12899
0.11733,0.10435
0.11766,0.14141
0.118,0.10714
0.11833,0.10128
0.11866,0.10837
0.119,0.10461
0.11933,0.12833
0.11967,0.095864
0.12,0.097816
0.12033,0.1189
0.12067,0.12273
0.121,0.11009
0.12134,0.12061
0.12167,0.12061
0.122,0.11148
0.12234,0.11049
0.12267,0.096145
0.12301,0.090148
0.12334,0.10111
0.12367,0.092634
0.12401,0.099209
0.12434,0.11331
0.12467,0.11022
0.12501,0.11429
0.12534,0.10272
0.12568,0.12281
0.12601,0.1086
0.12634,0.093993
0.12668,0.12264
0.12701,0.10865
0.12735,0.098294
0.12768,0.10619
0.12801,0.10591
0.12835,0.11464
0.12868,0.092663
0.12902,0.13591
0.12935,0.12004
0.12968,0.081739
0.13002,0.091657
0.13035,0.081296
0.13068,0.10134
0.13102,0.090609
0.13135,0.1185
0.13169,0.10162
0.13202,0.10257
0.13235,0.11247
0.13269,0.097033
0.13302,0.096959
0.13336,0.092708
0.13369,0.096756
0.13402,0.10895
0.13436,0.098628
0.13469,0.096656
0.13503,0.097804
0.13536,0.098728
0.13569,0.1092
0.13603,0.086341
0.13636,0.086756
0.13669,0.10292
0.13703,0.065958
0.13736,0.1248
0.1377,0.082854
0.13803,0.097345
0.13836,0.094933
0.1387,0.10955
0.13903,0.092676
0.13937,0.098534
0.1397,0.092848
0.14003,0.072289
0.14037,0.071859
0.1407,0.10349
0.14104,0.088797
0.14137,0.074507
0.1417,0.12001
0.14204,0.091515
0.14237,0.075626
0.1427,0.085931
0.14304,0.095331
0.14337,0.08039
0.14371,0.092483
0.14404,0.078621
0.14437,0.084693
0.14471,0.082466
0.14504,0.081483
0.14538,0.081563
0.14571,0.10361
0.14604,0.084453
0.14638,0.086192
0.14671,0.089759
0.14705,0.069413
0.14738,0.078859
0.14771,0.06889
0.14805,0.099598
0.14838,0.077358
0.14871,0.076101
0.14905,0.083464
0.14938,0.076102
0.14972,0.10665
0.15005,0.068959
0.15038,0.077362
0.15072,0.06883
0.15105,0.082022
0.15139,0.067432
0.15172,0.086809
0.15205,0.086293
0.15239,0.063359
0.15272,0.080156
0.15306,0.045165
0.15339,0.060744
0.15372,0.071893
0.15406,0.067687
0.15439,0.079869
0.15472,0.066335
0.15506,0.074701
0.15539,0.062311
0.15573,0.078672
0.15606,0.087495
0.15639,0.074775
0.15673,0.061236
0.15706,0.069484
0.1574,0.071638
0.15773,0.085432
0.15806,0.076509
0.1584,0.074441
0.15873,0.060946
0.15907,0.07108
0.1594,0.088138
0.15973,0.075772
0.16007,0.068319
0.1604,0.094707
0.16073,0.060417
0.16107,0.067072
0.1614,0.062807
0.16174,0.062215
0.16207,0.084162
0.1624,0.093812
0.16274,0.076384
0.16307,0.072707
0.16341,0.082208
0.16374,0.086503
0.16407,0.076452
0.16441,0.080947
0.16474,0.071553
0.16508,0.075569
0.16541,0.05394
0.16574,0.06491
0.16608,0.059749
0.16641,0.086679
0.16674,0.07779
0.16708,0.071363
0.16741,0.067012
0.16775,0.085077
0.16808,0.06559
0.16841,0.088172
0.16875,0.078056
0.16908,0.048233
0.16942,0.066081
0.16975,0.068617
0.17008,0.065866
0.17042,0.087572
0.17075,0.084024
0.17109,0.059449
0.17142,0.08009
0.17175,0.067346
0.17209,0.076343
0.17242,0.075869
0.17275,0.079724
0.17309,0.073834
0.17342,0.087421
0.17376,0.070125
0.17409,0.070993
0.17442,0.047963
0.17476,0.065077
0.17509,0.076102
0.17543,0.061455
0.17576,0.064084
0.17609,0.080634
0.17643,0.066973
0.17676,0.068787
0.1771,0.052381
0.17743,0.067781
0.17776,0.057046
0.1781,0.050926
0.17843,0.071496
0.17876,0.073772
0.1791,0.053075
0.17943,0.059065
0.17977,0.04423
0.1801,0.055159
0.18043,0.061744
0.18077,0.059538
0.1811,0.073121
0.18144,0.054382
0.18177,0.05185
0.1821,0.054029
0.18244,0.051163
0.18277,0.059934
0.18311,0.040056
0.18344,0.058292
0.18377,0.0692
0.18411,0.056528
0.18444,0.067247
0.18477,0.051555
0.18511,0.046965
0.18544,0.056281
0.18578,0.048421
0.18611,0.06533
0.18644,0.062243
0.18678,0.068362
0.18711,0.065714
0.18745,0.054428
0.18778,0.064336
0.18811,0.063771
0.18845,0.050582
0.18878,0.057233
0.18912,0.07617
0.18945,0.073086
0.18978,0.053751
0.19012,0.061229
0.19045,0.065076
0.19078,0.061301
0.19112,0.050135
0.19145,0.074704
0.19179,0.051994
0.19212,0.0673
0.19245,0.085453
0.19279,0.066561
0.19312,0.055095
0.19346,0.053218
0.19379,0.052574
0.19412,0.055696
0.19446,0.053019
0.19479,0.05123
0.19513,0.044064
0.19546,0.039311
0.19579,0.074005
0.19613,0.063551
0.19646,0.058759
0.19679,0.074302
0.19713,0.063212
0.19746,0.071591
0.1978,0.059752
0.19813,0.051036
0.19846,0.059753
0.1988,0.063557
0.19913,0.053724
0.19947,0.050175
0.1998,0.04379
0.20013,0.05706
0.20047,0.05674
0.2008,0.042767
0.20114,0.057793
0.20147,0.038787
0.2018,0.037789
0.20214,0.055994
0.20247,0.055191
0.2028,0.040397
0.20314,0.04443
0.20347,0.04561
0.20381,0.033281
0.20414,0.04223
0.20447,0.039601
0.20481,0.034992
0.20514,0.043007
0.20548,0.04314
0.20581,0.040599
0.20614,0.043141
0.20648,0.029605
0.20681,0.030766
0.20715,0.034007
0.20748,0.024764
0.20781,0.022981
0.20815,0.024858
0.20848,0.042833
0.20881,0.027344
0.20915,0.025553
0.20948,0.035629
0.20982,0.025862
0.21015,0.027184
0.21048,0.031095
0.21082,0.018782
0.21115,0.021488
0.21149,0.022096
0.21182,0.025417
0.21215,0.02251
0.21249,0.024488
0.21282,0.015272
0.21316,0.017131
0.21349,0.0099781
0.21382,0.014987
0.21416,0.012056
0.21449,0.017686
0.21482,0.017054
0.21516,0.018428
0.21549,0.0074991
0.21583,0.01083
0.21616,0.013568
0.21649,0.017156
0.21683,0.010775
0.21716,0.0037423
0.2175,0.0071974
0.21783,0.010979
0.21816,0.0087324
0.2185,0.011748
0.21883,0.0061195
0.21917,0.0024039
0.2195,0.0012058
0.21983,0.0036269
0.22017,0.0023857
